Mini-Calculator/AULA6/simulation/qsim/top_calc.msim.vcd
$comment
	File created using the following command:
		vcd file top_calc.msim.vcd -direction
$end
$date
	Wed Jul 11 13:45:25 2018
$end
$version
	ModelSim Version 10.1d
$end
$timescale
	1ps
$end
$scope module top_calc_vlg_vec_tst $end
$var reg 1 ! CLOCK $end
$var reg 2 " KEY [1:0] $end
$var reg 10 # SW [9:0] $end
$var wire 1 $ HEX0 [6] $end
$var wire 1 % HEX0 [5] $end
$var wire 1 & HEX0 [4] $end
$var wire 1 ' HEX0 [3] $end
$var wire 1 ( HEX0 [2] $end
$var wire 1 ) HEX0 [1] $end
$var wire 1 * HEX0 [0] $end
$var wire 1 + LEDR [9] $end
$var wire 1 , LEDR [8] $end
$var wire 1 - LEDR [7] $end
$var wire 1 . LEDR [6] $end
$var wire 1 / LEDR [5] $end
$var wire 1 0 LEDR [4] $end
$var wire 1 1 LEDR [3] $end
$var wire 1 2 LEDR [2] $end
$var wire 1 3 LEDR [1] $end
$var wire 1 4 LEDR [0] $end
$var wire 1 5 sampler $end
$scope module i1 $end
$var wire 1 6 gnd $end
$var wire 1 7 vcc $end
$var wire 1 8 unknown $end
$var tri1 1 9 devclrn $end
$var tri1 1 : devpor $end
$var tri1 1 ; devoe $end
$var wire 1 < SW[8]~input_o $end
$var wire 1 = CLOCK~input_o $end
$var wire 1 > ~QUARTUS_CREATED_GND~I_combout $end
$var wire 1 ? SW[9]~input_o $end
$var wire 1 @ SW[6]~input_o $end
$var wire 1 A SW[2]~input_o $end
$var wire 1 B SW[1]~input_o $end
$var wire 1 C SW[4]~input_o $end
$var wire 1 D SW[0]~input_o $end
$var wire 1 E L0|Add0~6 $end
$var wire 1 F L0|Add0~14 $end
$var wire 1 G L0|Add0~1_sumout $end
$var wire 1 H L5|m[2]~0_combout $end
$var wire 1 I KEY[0]~input_o $end
$var wire 1 J KEY[1]~input_o $end
$var wire 1 K SW[5]~input_o $end
$var wire 1 L L0|Add0~13_sumout $end
$var wire 1 M L5|m[1]~3_combout $end
$var wire 1 N L0|Add0~5_sumout $end
$var wire 1 O L5|m[0]~1_combout $end
$var wire 1 P SW[3]~input_o $end
$var wire 1 Q SW[7]~input_o $end
$var wire 1 R L0|Add0~2 $end
$var wire 1 S L0|Add0~9_sumout $end
$var wire 1 T L5|m[3]~2_combout $end
$var wire 1 U L8|F[0]~0_combout $end
$var wire 1 V L8|F[1]~1_combout $end
$var wire 1 W L8|F[2]~2_combout $end
$var wire 1 X L8|F[3]~3_combout $end
$var wire 1 Y L8|F[4]~4_combout $end
$var wire 1 Z L8|F[5]~5_combout $end
$var wire 1 [ L8|F[6]~6_combout $end
$var wire 1 \ CLOCK~inputCLKENA0_outclk $end
$var wire 1 ] L7|Q[0]~feeder_combout $end
$var wire 1 ^ L7|Q[1]~feeder_combout $end
$var wire 1 _ L7|Q[2]~feeder_combout $end
$var wire 1 ` L7|Q[3]~feeder_combout $end
$var wire 1 a L6|Q [3] $end
$var wire 1 b L6|Q [2] $end
$var wire 1 c L6|Q [1] $end
$var wire 1 d L6|Q [0] $end
$var wire 1 e L7|Q [3] $end
$var wire 1 f L7|Q [2] $end
$var wire 1 g L7|Q [1] $end
$var wire 1 h L7|Q [0] $end
$upscope $end
$upscope $end
$enddefinitions $end
#0
$dumpvars
0!
b11 "
b10001 #
0*
0)
0(
0'
0&
0%
1$
04
03
02
01
00
0/
0.
0-
0,
0+
x5
06
17
x8
19
1:
1;
0<
0=
0>
0?
0@
0A
0B
1C
1D
1E
0F
0G
0H
1I
1J
0K
1L
1M
0N
0O
0P
0Q
0R
0S
0T
0U
0V
0W
0X
0Y
0Z
0[
0\
0]
1^
0_
0`
0d
0c
0b
0a
0h
0g
0f
0e
$end
#250
1!
1=
1\
05
1c
1g
1[
13
1W
1Z
0$
1(
1%
#500
0!
0=
0\
15
#750
1!
1=
1\
05
#1000
0!
0=
0\
15
#1250
1!
1=
1\
05
#1500
0!
0=
0\
15
#1750
1!
1=
1\
05
#2000
0!
0=
0\
15
#2250
1!
1=
1\
05
#2500
0!
0=
0\
15
#2750
1!
1=
1\
05
#3000
0!
0=
0\
15
#3250
1!
1=
1\
05
#3500
0!
0=
0\
15
#3750
1!
1=
1\
05
#4000
0!
0=
0\
15
#4250
1!
1=
1\
05
#4500
0!
0=
0\
15
#4750
1!
1=
1\
05
#5000
0!
0=
0\
15
#5250
1!
1=
1\
05
#5500
0!
0=
0\
15
#5750
1!
1=
1\
05
#6000
0!
0=
0\
15
#6250
1!
1=
1\
05
#6500
0!
0=
0\
15
#6750
1!
1=
1\
05
#7000
0!
0=
0\
15
#7250
1!
1=
1\
05
#7500
0!
0=
0\
15
#7750
1!
1=
1\
05
#8000
0!
0=
0\
15
#8250
1!
1=
1\
05
#8500
0!
0=
0\
15
#8750
1!
1=
1\
05
#9000
0!
0=
0\
15
#9250
1!
1=
1\
05
#9500
0!
0=
0\
15
#9750
1!
1=
1\
05
#10000
b110001 #
b100001 #
0!
0C
1K
0=
0\
15
0E
1N
1F
0L
0F
1L
1G
1O
0M
0G
1M
1H
1]
0^
0H
1^
1_
0_
#10250
1!
1=
1\
05
1d
1h
14
0W
1Y
0(
1&
#10500
0!
0=
0\
15
#10750
1!
1=
1\
05
#11000
0!
0=
0\
15
#11250
1!
1=
1\
05
#11500
0!
0=
0\
15
#11750
1!
1=
1\
05
#12000
0!
0=
0\
15
#12250
1!
1=
1\
05
#12500
0!
0=
0\
15
#12750
1!
1=
1\
05
#13000
0!
0=
0\
15
#13250
1!
1=
1\
05
#13500
0!
0=
0\
15
#13750
1!
1=
1\
05
#14000
0!
0=
0\
15
#14250
1!
1=
1\
05
#14500
0!
0=
0\
15
#14750
1!
1=
1\
05
#15000
0!
0=
0\
15
#15250
1!
1=
1\
05
#15500
0!
0=
0\
15
#15750
1!
1=
1\
05
#16000
0!
0=
0\
15
#16250
1!
1=
1\
05
#16500
0!
0=
0\
15
#16750
1!
1=
1\
05
#17000
0!
0=
0\
15
#17250
1!
1=
1\
05
#17500
0!
0=
0\
15
#17750
1!
1=
1\
05
#18000
0!
0=
0\
15
#18250
1!
1=
1\
05
#18500
0!
0=
0\
15
#18750
1!
1=
1\
05
#19000
0!
0=
0\
15
#19250
1!
1=
1\
05
#19500
0!
0=
0\
15
#19750
1!
1=
1\
05
#20000
b1 "
b100011 #
b100010 #
0!
0D
1B
0J
0=
0\
15
0N
1F
0L
1G
0O
0M
1H
0]
0^
1_
#20250
1!
1=
1\
05
#20500
0!
0=
0\
15
#20750
1!
1=
1\
05
#21000
0!
0=
0\
15
#21250
1!
1=
1\
05
#21500
0!
0=
0\
15
#21750
1!
1=
1\
05
#22000
0!
0=
0\
15
#22250
1!
1=
1\
05
#22500
0!
0=
0\
15
#22750
1!
1=
1\
05
#23000
0!
0=
0\
15
#23250
1!
1=
1\
05
#23500
0!
0=
0\
15
#23750
1!
1=
1\
05
#24000
0!
0=
0\
15
#24250
1!
1=
1\
05
#24500
0!
0=
0\
15
#24750
1!
1=
1\
05
#25000
0!
0=
0\
15
#25250
1!
1=
1\
05
#25500
0!
0=
0\
15
#25750
1!
1=
1\
05
#26000
0!
0=
0\
15
#26250
1!
1=
1\
05
#26500
0!
0=
0\
15
#26750
1!
1=
1\
05
#27000
0!
0=
0\
15
#27250
1!
1=
1\
05
#27500
0!
0=
0\
15
#27750
1!
1=
1\
05
#28000
0!
0=
0\
15
#28250
1!
1=
1\
05
#28500
0!
0=
0\
15
#28750
1!
1=
1\
05
#29000
0!
0=
0\
15
#29250
1!
1=
1\
05
#29500
0!
0=
0\
15
#29750
1!
1=
1\
05
#30000
b0 "
b110010 #
b10 "
0!
1C
0I
1J
0=
0\
15
1N
1O
1]
0d
0c
0g
0h
0[
03
04
0Y
0Z
1$
0&
0%
#30250
1!
1=
1\
05
#30500
0!
0=
0\
15
#30750
1!
1=
1\
05
#31000
0!
0=
0\
15
#31250
1!
1=
1\
05
#31500
0!
0=
0\
15
#31750
1!
1=
1\
05
#32000
0!
0=
0\
15
#32250
1!
1=
1\
05
#32500
0!
0=
0\
15
#32750
1!
1=
1\
05
#33000
0!
0=
0\
15
#33250
1!
1=
1\
05
#33500
0!
0=
0\
15
#33750
1!
1=
1\
05
#34000
0!
0=
0\
15
#34250
1!
1=
1\
05
#34500
0!
0=
0\
15
#34750
1!
1=
1\
05
#35000
0!
0=
0\
15
#35250
1!
1=
1\
05
#35500
0!
0=
0\
15
#35750
1!
1=
1\
05
#36000
0!
0=
0\
15
#36250
1!
1=
1\
05
#36500
0!
0=
0\
15
#36750
1!
1=
1\
05
#37000
0!
0=
0\
15
#37250
1!
1=
1\
05
#37500
0!
0=
0\
15
#37750
1!
1=
1\
05
#38000
0!
0=
0\
15
#38250
1!
1=
1\
05
#38500
0!
0=
0\
15
#38750
1!
1=
1\
05
#39000
0!
0=
0\
15
#39250
1!
1=
1\
05
#39500
0!
0=
0\
15
#39750
1!
1=
1\
05
#40000
b110011 #
b11 "
b1 "
0!
1I
0J
1D
0=
0\
15
1E
0N
1L
0O
1M
0]
1^
#40250
1!
1=
1\
05
#40500
0!
0=
0\
15
#40750
1!
1=
1\
05
#41000
0!
0=
0\
15
#41250
1!
1=
1\
05
#41500
0!
0=
0\
15
#41750
1!
1=
1\
05
#42000
0!
0=
0\
15
#42250
1!
1=
1\
05
#42500
0!
0=
0\
15
#42750
1!
1=
1\
05
#43000
0!
0=
0\
15
#43250
1!
1=
1\
05
#43500
0!
0=
0\
15
#43750
1!
1=
1\
05
#44000
0!
0=
0\
15
#44250
1!
1=
1\
05
#44500
0!
0=
0\
15
#44750
1!
1=
1\
05
#45000
0!
0=
0\
15
#45250
1!
1=
1\
05
#45500
0!
0=
0\
15
#45750
1!
1=
1\
05
#46000
0!
0=
0\
15
#46250
1!
1=
1\
05
#46500
0!
0=
0\
15
#46750
1!
1=
1\
05
#47000
0!
0=
0\
15
#47250
1!
1=
1\
05
#47500
0!
0=
0\
15
#47750
1!
1=
1\
05
#48000
0!
0=
0\
15
#48250
1!
1=
1\
05
#48500
0!
0=
0\
15
#48750
1!
1=
1\
05
#49000
0!
0=
0\
15
#49250
1!
1=
1\
05
#49500
0!
0=
0\
15
#49750
1!
1=
1\
05
#50000
b1110011 #
b1010011 #
b1000011 #
0!
0C
0K
1@
0=
0\
15
0E
1N
0L
1R
0G
0F
1L
1S
1O
0M
0H
0R
1G
1M
1T
1]
0^
0_
0S
1H
1^
1`
0T
1_
0`
#50250
1!
1=
1\
05
#50500
0!
0=
0\
15
#50750
1!
1=
1\
05
#51000
0!
0=
0\
15
#51250
1!
1=
1\
05
#51500
0!
0=
0\
15
#51750
1!
1=
1\
05
#52000
0!
0=
0\
15
#52250
1!
1=
1\
05
#52500
0!
0=
0\
15
#52750
1!
1=
1\
05
#53000
0!
0=
0\
15
#53250
1!
1=
1\
05
#53500
0!
0=
0\
15
#53750
1!
1=
1\
05
#54000
0!
0=
0\
15
#54250
1!
1=
1\
05
#54500
0!
0=
0\
15
#54750
1!
1=
1\
05
#55000
0!
0=
0\
15
#55250
1!
1=
1\
05
#55500
0!
0=
0\
15
#55750
1!
1=
1\
05
#56000
0!
0=
0\
15
#56250
1!
1=
1\
05
#56500
0!
0=
0\
15
#56750
1!
1=
1\
05
#57000
0!
0=
0\
15
#57250
1!
1=
1\
05
#57500
0!
0=
0\
15
#57750
1!
1=
1\
05
#58000
0!
0=
0\
15
#58250
1!
1=
1\
05
#58500
0!
0=
0\
15
#58750
1!
1=
1\
05
#59000
0!
0=
0\
15
#59250
1!
1=
1\
05
#59500
0!
0=
0\
15
#59750
1!
1=
1\
05
#60000
b1000111 #
b1000101 #
b1000100 #
b11 "
0!
1J
0D
0B
1A
0=
0\
15
0N
0L
1R
0G
1S
0O
0M
0H
1T
0]
0^
0_
1`
#60250
1!
1=
1\
05
1a
1e
1[
11
0$
#60500
0!
0=
0\
15
#60750
1!
1=
1\
05
#61000
0!
0=
0\
15
#61250
1!
1=
1\
05
#61500
0!
0=
0\
15
#61750
1!
1=
1\
05
#62000
0!
0=
0\
15
#62250
1!
1=
1\
05
#62500
0!
0=
0\
15
#62750
1!
1=
1\
05
#63000
0!
0=
0\
15
#63250
1!
1=
1\
05
#63500
0!
0=
0\
15
#63750
1!
1=
1\
05
#64000
0!
0=
0\
15
#64250
1!
1=
1\
05
#64500
0!
0=
0\
15
#64750
1!
1=
1\
05
#65000
0!
0=
0\
15
#65250
1!
1=
1\
05
#65500
0!
0=
0\
15
#65750
1!
1=
1\
05
#66000
0!
0=
0\
15
#66250
1!
1=
1\
05
#66500
0!
0=
0\
15
#66750
1!
1=
1\
05
#67000
0!
0=
0\
15
#67250
1!
1=
1\
05
#67500
0!
0=
0\
15
#67750
1!
1=
1\
05
#68000
0!
0=
0\
15
#68250
1!
1=
1\
05
#68500
0!
0=
0\
15
#68750
1!
1=
1\
05
#69000
0!
0=
0\
15
#69250
1!
1=
1\
05
#69500
0!
0=
0\
15
#69750
1!
1=
1\
05
#70000
b1010100 #
b1 "
0!
0J
1C
0=
0\
15
1N
1O
1]
#70250
1!
1=
1\
05
#70500
0!
0=
0\
15
#70750
1!
1=
1\
05
#71000
0!
0=
0\
15
#71250
1!
1=
1\
05
#71500
0!
0=
0\
15
#71750
1!
1=
1\
05
#72000
0!
0=
0\
15
#72250
1!
1=
1\
05
#72500
0!
0=
0\
15
#72750
1!
1=
1\
05
#73000
0!
0=
0\
15
#73250
1!
1=
1\
05
#73500
0!
0=
0\
15
#73750
1!
1=
1\
05
#74000
0!
0=
0\
15
#74250
1!
1=
1\
05
#74500
0!
0=
0\
15
#74750
1!
1=
1\
05
#75000
0!
0=
0\
15
#75250
1!
1=
1\
05
#75500
0!
0=
0\
15
#75750
1!
1=
1\
05
#76000
0!
0=
0\
15
#76250
1!
1=
1\
05
#76500
0!
0=
0\
15
#76750
1!
1=
1\
05
#77000
0!
0=
0\
15
#77250
1!
1=
1\
05
#77500
0!
0=
0\
15
#77750
1!
1=
1\
05
#78000
0!
0=
0\
15
#78250
1!
1=
1\
05
#78500
0!
0=
0\
15
#78750
1!
1=
1\
05
#79000
0!
0=
0\
15
#79250
1!
1=
1\
05
#79500
0!
0=
0\
15
#79750
1!
1=
1\
05
#80000
b0 "
b1010101 #
0!
1D
0I
0=
0\
15
1E
0N
1L
0O
1M
0]
1^
0a
0e
0[
01
1$
#80250
1!
1=
1\
05
#80500
0!
0=
0\
15
#80750
1!
1=
1\
05
#81000
0!
0=
0\
15
#81250
1!
1=
1\
05
#81500
0!
0=
0\
15
#81750
1!
1=
1\
05
#82000
0!
0=
0\
15
#82250
1!
1=
1\
05
#82500
0!
0=
0\
15
#82750
1!
1=
1\
05
#83000
0!
0=
0\
15
#83250
1!
1=
1\
05
#83500
0!
0=
0\
15
#83750
1!
1=
1\
05
#84000
0!
0=
0\
15
#84250
1!
1=
1\
05
#84500
0!
0=
0\
15
#84750
1!
1=
1\
05
#85000
0!
0=
0\
15
#85250
1!
1=
1\
05
#85500
0!
0=
0\
15
#85750
1!
1=
1\
05
#86000
0!
0=
0\
15
#86250
1!
1=
1\
05
#86500
0!
0=
0\
15
#86750
1!
1=
1\
05
#87000
0!
0=
0\
15
#87250
1!
1=
1\
05
#87500
0!
0=
0\
15
#87750
1!
1=
1\
05
#88000
0!
0=
0\
15
#88250
1!
1=
1\
05
#88500
0!
0=
0\
15
#88750
1!
1=
1\
05
#89000
0!
0=
0\
15
#89250
1!
1=
1\
05
#89500
0!
0=
0\
15
#89750
1!
1=
1\
05
#90000
b10101 #
b10001 #
b1 #
b0 #
0!
0D
0A
0C
0@
0=
0\
15
0E
0R
0L
0S
0M
0T
0^
0`
#90250
1!
1=
1\
05
#90500
0!
0=
0\
15
#90750
1!
1=
1\
05
#91000
0!
0=
0\
15
#91250
1!
1=
1\
05
#91500
0!
0=
0\
15
#91750
1!
1=
1\
05
#92000
0!
0=
0\
15
#92250
1!
1=
1\
05
#92500
0!
0=
0\
15
#92750
1!
1=
1\
05
#93000
0!
0=
0\
15
#93250
1!
1=
1\
05
#93500
0!
0=
0\
15
#93750
1!
1=
1\
05
#94000
0!
0=
0\
15
#94250
1!
1=
1\
05
#94500
0!
0=
0\
15
#94750
1!
1=
1\
05
#95000
0!
0=
0\
15
#95250
1!
1=
1\
05
#95500
0!
0=
0\
15
#95750
1!
1=
1\
05
#96000
0!
0=
0\
15
#96250
1!
1=
1\
05
#96500
0!
0=
0\
15
#96750
1!
1=
1\
05
#97000
0!
0=
0\
15
#97250
1!
1=
1\
05
#97500
0!
0=
0\
15
#97750
1!
1=
1\
05
#98000
0!
0=
0\
15
#98250
1!
1=
1\
05
#98500
0!
0=
0\
15
#98750
1!
1=
1\
05
#99000
0!
0=
0\
15
#99250
1!
1=
1\
05
#99500
0!
0=
0\
15
#99750
1!
1=
1\
05
#100000
0!
0=
0\
15
#100250
1!
1=
1\
05
#100500
0!
0=
0\
15
#100750
1!
1=
1\
05
#101000
0!
0=
0\
15
#101250
1!
1=
1\
05
#101500
0!
0=
0\
15
#101750
1!
1=
1\
05
#102000
0!
0=
0\
15
#102250
1!
1=
1\
05
#102500
0!
0=
0\
15
#102750
1!
1=
1\
05
#103000
0!
0=
0\
15
#103250
1!
1=
1\
05
#103500
0!
0=
0\
15
#103750
1!
1=
1\
05
#104000
0!
0=
0\
15
#104250
1!
1=
1\
05
#104500
0!
0=
0\
15
#104750
1!
1=
1\
05
#105000
0!
0=
0\
15
#105250
1!
1=
1\
05
#105500
0!
0=
0\
15
#105750
1!
1=
1\
05
#106000
0!
0=
0\
15
#106250
1!
1=
1\
05
#106500
0!
0=
0\
15
#106750
1!
1=
1\
05
#107000
0!
0=
0\
15
#107250
1!
1=
1\
05
#107500
0!
0=
0\
15
#107750
1!
1=
1\
05
#108000
0!
0=
0\
15
#108250
1!
1=
1\
05
#108500
0!
0=
0\
15
#108750
1!
1=
1\
05
#109000
0!
0=
0\
15
#109250
1!
1=
1\
05
#109500
0!
0=
0\
15
#109750
1!
1=
1\
05
#110000
0!
0=
0\
15
#110250
1!
1=
1\
05
#110500
0!
0=
0\
15
#110750
1!
1=
1\
05
#111000
0!
0=
0\
15
#111250
1!
1=
1\
05
#111500
0!
0=
0\
15
#111750
1!
1=
1\
05
#112000
0!
0=
0\
15
#112250
1!
1=
1\
05
#112500
0!
0=
0\
15
#112750
1!
1=
1\
05
#113000
0!
0=
0\
15
#113250
1!
1=
1\
05
#113500
0!
0=
0\
15
#113750
1!
1=
1\
05
#114000
0!
0=
0\
15
#114250
1!
1=
1\
05
#114500
0!
0=
0\
15
#114750
1!
1=
1\
05
#115000
0!
0=
0\
15
#115250
1!
1=
1\
05
#115500
0!
0=
0\
15
#115750
1!
1=
1\
05
#116000
0!
0=
0\
15
#116250
1!
1=
1\
05
#116500
0!
0=
0\
15
#116750
1!
1=
1\
05
#117000
0!
0=
0\
15
#117250
1!
1=
1\
05
#117500
0!
0=
0\
15
#117750
1!
1=
1\
05
#118000
0!
0=
0\
15
#118250
1!
1=
1\
05
#118500
0!
0=
0\
15
#118750
1!
1=
1\
05
#119000
0!
0=
0\
15
#119250
1!
1=
1\
05
#119500
0!
0=
0\
15
#119750
1!
1=
1\
05
#120000
0!
0=
0\
15
#120250
1!
1=
1\
05
#120500
0!
0=
0\
15
#120750
1!
1=
1\
05
#121000
0!
0=
0\
15
#121250
1!
1=
1\
05
#121500
0!
0=
0\
15
#121750
1!
1=
1\
05
#122000
0!
0=
0\
15
#122250
1!
1=
1\
05
#122500
0!
0=
0\
15
#122750
1!
1=
1\
05
#123000
0!
0=
0\
15
#123250
1!
1=
1\
05
#123500
0!
0=
0\
15
#123750
1!
1=
1\
05
#124000
0!
0=
0\
15
#124250
1!
1=
1\
05
#124500
0!
0=
0\
15
#124750
1!
1=
1\
05
#125000
0!
0=
0\
15
#125250
1!
1=
1\
05
#125500
0!
0=
0\
15
#125750
1!
1=
1\
05
#126000
0!
0=
0\
15
#126250
1!
1=
1\
05
#126500
0!
0=
0\
15
#126750
1!
1=
1\
05
#127000
0!
0=
0\
15
#127250
1!
1=
1\
05
#127500
0!
0=
0\
15
#127750
1!
1=
1\
05
#128000
0!
0=
0\
15
#128250
1!
1=
1\
05
#128500
0!
0=
0\
15
#128750
1!
1=
1\
05
#129000
0!
0=
0\
15
#129250
1!
1=
1\
05
#129500
0!
0=
0\
15
#129750
1!
1=
1\
05
#130000
0!
0=
0\
15
#130250
1!
1=
1\
05
#130500
0!
0=
0\
15
#130750
1!
1=
1\
05
#131000
0!
0=
0\
15
#131250
1!
1=
1\
05
#131500
0!
0=
0\
15
#131750
1!
1=
1\
05
#132000
0!
0=
0\
15
#132250
1!
1=
1\
05
#132500
0!
0=
0\
15
#132750
1!
1=
1\
05
#133000
0!
0=
0\
15
#133250
1!
1=
1\
05
#133500
0!
0=
0\
15
#133750
1!
1=
1\
05
#134000
0!
0=
0\
15
#134250
1!
1=
1\
05
#134500
0!
0=
0\
15
#134750
1!
1=
1\
05
#135000
0!
0=
0\
15
#135250
1!
1=
1\
05
#135500
0!
0=
0\
15
#135750
1!
1=
1\
05
#136000
0!
0=
0\
15
#136250
1!
1=
1\
05
#136500
0!
0=
0\
15
#136750
1!
1=
1\
05
#137000
0!
0=
0\
15
#137250
1!
1=
1\
05
#137500
0!
0=
0\
15
#137750
1!
1=
1\
05
#138000
0!
0=
0\
15
#138250
1!
1=
1\
05
#138500
0!
0=
0\
15
#138750
1!
1=
1\
05
#139000
0!
0=
0\
15
#139250
1!
1=
1\
05
#139500
0!
0=
0\
15
#139750
1!
1=
1\
05
#140000
0!
0=
0\
15
#140250
1!
1=
1\
05
#140500
0!
0=
0\
15
#140750
1!
1=
1\
05
#141000
0!
0=
0\
15
#141250
1!
1=
1\
05
#141500
0!
0=
0\
15
#141750
1!
1=
1\
05
#142000
0!
0=
0\
15
#142250
1!
1=
1\
05
#142500
0!
0=
0\
15
#142750
1!
1=
1\
05
#143000
0!
0=
0\
15
#143250
1!
1=
1\
05
#143500
0!
0=
0\
15
#143750
1!
1=
1\
05
#144000
0!
0=
0\
15
#144250
1!
1=
1\
05
#144500
0!
0=
0\
15
#144750
1!
1=
1\
05
#145000
0!
0=
0\
15
#145250
1!
1=
1\
05
#145500
0!
0=
0\
15
#145750
1!
1=
1\
05
#146000
0!
0=
0\
15
#146250
1!
1=
1\
05
#146500
0!
0=
0\
15
#146750
1!
1=
1\
05
#147000
0!
0=
0\
15
#147250
1!
1=
1\
05
#147500
0!
0=
0\
15
#147750
1!
1=
1\
05
#148000
0!
0=
0\
15
#148250
1!
1=
1\
05
#148500
0!
0=
0\
15
#148750
1!
1=
1\
05
#149000
0!
0=
0\
15
#149250
1!
1=
1\
05
#149500
0!
0=
0\
15
#149750
1!
1=
1\
05
#150000
0!
0=
0\
15
#150250
1!
1=
1\
05
#150500
0!
0=
0\
15
#150750
1!
1=
1\
05
#151000
0!
0=
0\
15
#151250
1!
1=
1\
05
#151500
0!
0=
0\
15
#151750
1!
1=
1\
05
#152000
0!
0=
0\
15
#152250
1!
1=
1\
05
#152500
0!
0=
0\
15
#152750
1!
1=
1\
05
#153000
0!
0=
0\
15
#153250
1!
1=
1\
05
#153500
0!
0=
0\
15
#153750
1!
1=
1\
05
#154000
0!
0=
0\
15
#154250
1!
1=
1\
05
#154500
0!
0=
0\
15
#154750
1!
1=
1\
05
#155000
0!
0=
0\
15
#155250
1!
1=
1\
05
#155500
0!
0=
0\
15
#155750
1!
1=
1\
05
#156000
0!
0=
0\
15
#156250
1!
1=
1\
05
#156500
0!
0=
0\
15
#156750
1!
1=
1\
05
#157000
0!
0=
0\
15
#157250
1!
1=
1\
05
#157500
0!
0=
0\
15
#157750
1!
1=
1\
05
#158000
0!
0=
0\
15
#158250
1!
1=
1\
05
#158500
0!
0=
0\
15
#158750
1!
1=
1\
05
#159000
0!
0=
0\
15
#159250
1!
1=
1\
05
#159500
0!
0=
0\
15
#159750
1!
1=
1\
05
#160000
0!
0=
0\
15
#160250
1!
1=
1\
05
#160500
0!
0=
0\
15
#160750
1!
1=
1\
05
#161000
0!
0=
0\
15
#161250
1!
1=
1\
05
#161500
0!
0=
0\
15
#161750
1!
1=
1\
05
#162000
0!
0=
0\
15
#162250
1!
1=
1\
05
#162500
0!
0=
0\
15
#162750
1!
1=
1\
05
#163000
0!
0=
0\
15
#163250
1!
1=
1\
05
#163500
0!
0=
0\
15
#163750
1!
1=
1\
05
#164000
0!
0=
0\
15
#164250
1!
1=
1\
05
#164500
0!
0=
0\
15
#164750
1!
1=
1\
05
#165000
0!
0=
0\
15
#165250
1!
1=
1\
05
#165500
0!
0=
0\
15
#165750
1!
1=
1\
05
#166000
0!
0=
0\
15
#166250
1!
1=
1\
05
#166500
0!
0=
0\
15
#166750
1!
1=
1\
05
#167000
0!
0=
0\
15
#167250
1!
1=
1\
05
#167500
0!
0=
0\
15
#167750
1!
1=
1\
05
#168000
0!
0=
0\
15
#168250
1!
1=
1\
05
#168500
0!
0=
0\
15
#168750
1!
1=
1\
05
#169000
0!
0=
0\
15
#169250
1!
1=
1\
05
#169500
0!
0=
0\
15
#169750
1!
1=
1\
05
#170000
0!
0=
0\
15
#170250
1!
1=
1\
05
#170500
0!
0=
0\
15
#170750
1!
1=
1\
05
#171000
0!
0=
0\
15
#171250
1!
1=
1\
05
#171500
0!
0=
0\
15
#171750
1!
1=
1\
05
#172000
0!
0=
0\
15
#172250
1!
1=
1\
05
#172500
0!
0=
0\
15
#172750
1!
1=
1\
05
#173000
0!
0=
0\
15
#173250
1!
1=
1\
05
#173500
0!
0=
0\
15
#173750
1!
1=
1\
05
#174000
0!
0=
0\
15
#174250
1!
1=
1\
05
#174500
0!
0=
0\
15
#174750
1!
1=
1\
05
#175000
0!
0=
0\
15
#175250
1!
1=
1\
05
#175500
0!
0=
0\
15
#175750
1!
1=
1\
05
#176000
0!
0=
0\
15
#176250
1!
1=
1\
05
#176500
0!
0=
0\
15
#176750
1!
1=
1\
05
#177000
0!
0=
0\
15
#177250
1!
1=
1\
05
#177500
0!
0=
0\
15
#177750
1!
1=
1\
05
#178000
0!
0=
0\
15
#178250
1!
1=
1\
05
#178500
0!
0=
0\
15
#178750
1!
1=
1\
05
#179000
0!
0=
0\
15
#179250
1!
1=
1\
05
#179500
0!
0=
0\
15
#179750
1!
1=
1\
05
#180000
0!
0=
0\
15
#180250
1!
1=
1\
05
#180500
0!
0=
0\
15
#180750
1!
1=
1\
05
#181000
0!
0=
0\
15
#181250
1!
1=
1\
05
#181500
0!
0=
0\
15
#181750
1!
1=
1\
05
#182000
0!
0=
0\
15
#182250
1!
1=
1\
05
#182500
0!
0=
0\
15
#182750
1!
1=
1\
05
#183000
0!
0=
0\
15
#183250
1!
1=
1\
05
#183500
0!
0=
0\
15
#183750
1!
1=
1\
05
#184000
0!
0=
0\
15
#184250
1!
1=
1\
05
#184500
0!
0=
0\
15
#184750
1!
1=
1\
05
#185000
0!
0=
0\
15
#185250
1!
1=
1\
05
#185500
0!
0=
0\
15
#185750
1!
1=
1\
05
#186000
0!
0=
0\
15
#186250
1!
1=
1\
05
#186500
0!
0=
0\
15
#186750
1!
1=
1\
05
#187000
0!
0=
0\
15
#187250
1!
1=
1\
05
#187500
0!
0=
0\
15
#187750
1!
1=
1\
05
#188000
0!
0=
0\
15
#188250
1!
1=
1\
05
#188500
0!
0=
0\
15
#188750
1!
1=
1\
05
#189000
0!
0=
0\
15
#189250
1!
1=
1\
05
#189500
0!
0=
0\
15
#189750
1!
1=
1\
05
#190000
0!
0=
0\
15
#190250
1!
1=
1\
05
#190500
0!
0=
0\
15
#190750
1!
1=
1\
05
#191000
0!
0=
0\
15
#191250
1!
1=
1\
05
#191500
0!
0=
0\
15
#191750
1!
1=
1\
05
#192000
0!
0=
0\
15
#192250
1!
1=
1\
05
#192500
0!
0=
0\
15
#192750
1!
1=
1\
05
#193000
0!
0=
0\
15
#193250
1!
1=
1\
05
#193500
0!
0=
0\
15
#193750
1!
1=
1\
05
#194000
0!
0=
0\
15
#194250
1!
1=
1\
05
#194500
0!
0=
0\
15
#194750
1!
1=
1\
05
#195000
0!
0=
0\
15
#195250
1!
1=
1\
05
#195500
0!
0=
0\
15
#195750
1!
1=
1\
05
#196000
0!
0=
0\
15
#196250
1!
1=
1\
05
#196500
0!
0=
0\
15
#196750
1!
1=
1\
05
#197000
0!
0=
0\
15
#197250
1!
1=
1\
05
#197500
0!
0=
0\
15
#197750
1!
1=
1\
05
#198000
0!
0=
0\
15
#198250
1!
1=
1\
05
#198500
0!
0=
0\
15
#198750
1!
1=
1\
05
#199000
0!
0=
0\
15
#199250
1!
1=
1\
05
#199500
0!
0=
0\
15
#199750
1!
1=
1\
05
#200000
0!
0=
0\
15
#200250
1!
1=
1\
05
#200500
0!
0=
0\
15
#200750
1!
1=
1\
05
#201000
0!
0=
0\
15
#201250
1!
1=
1\
05
#201500
0!
0=
0\
15
#201750
1!
1=
1\
05
#202000
0!
0=
0\
15
#202250
1!
1=
1\
05
#202500
0!
0=
0\
15
#202750
1!
1=
1\
05
#203000
0!
0=
0\
15
#203250
1!
1=
1\
05
#203500
0!
0=
0\
15
#203750
1!
1=
1\
05
#204000
0!
0=
0\
15
#204250
1!
1=
1\
05
#204500
0!
0=
0\
15
#204750
1!
1=
1\
05
#205000
0!
0=
0\
15
#205250
1!
1=
1\
05
#205500
0!
0=
0\
15
#205750
1!
1=
1\
05
#206000
0!
0=
0\
15
#206250
1!
1=
1\
05
#206500
0!
0=
0\
15
#206750
1!
1=
1\
05
#207000
0!
0=
0\
15
#207250
1!
1=
1\
05
#207500
0!
0=
0\
15
#207750
1!
1=
1\
05
#208000
0!
0=
0\
15
