Mini-Calculator/AULA2/simulation/qsim/halfadder.msim.vcd
$comment
	File created using the following command:
		vcd file halfadder.msim.vcd -direction
$end
$date
	Sun Jul 08 21:36:31 2018
$end
$version
	ModelSim Version 10.1d
$end
$timescale
	1ps
$end
$scope module halfadder_vlg_vec_tst $end
$var reg 1 ! A $end
$var reg 1 " B $end
$var reg 1 # C $end
$var wire 1 $ Carry $end
$var wire 1 % Sum $end
$var wire 1 & sampler $end
$scope module i1 $end
$var wire 1 ' gnd $end
$var wire 1 ( vcc $end
$var wire 1 ) unknown $end
$var tri1 1 * devclrn $end
$var tri1 1 + devpor $end
$var tri1 1 , devoe $end
$var wire 1 - ~QUARTUS_CREATED_GND~I_combout $end
$var wire 1 . C~input_o $end
$var wire 1 / A~input_o $end
$var wire 1 0 B~input_o $end
$var wire 1 1 Sum~0_combout $end
$var wire 1 2 Carry~0_combout $end
$upscope $end
$upscope $end
$enddefinitions $end
#0
$dumpvars
0!
0"
0#
0$
0%
x&
0'
1(
x)
1*
1+
1,
0-
0.
0/
00
01
02
$end
#5000
1!
1/
0&
11
1%
#10000
1"
0!
10
0/
1&
#15000
1!
1/
0&
01
12
0%
1$
#20000
1#
0"
0!
1.
00
0/
1&
11
02
1%
0$
#25000
1!
1/
0&
01
12
0%
1$
#30000
1"
0!
10
0/
1&
#35000
1!
1/
0&
11
1%
#40000
0#
0"
0!
0.
00
0/
1&
01
02
0%
0$
#45000
1!
1/
0&
11
1%
#50000
1"
0!
10
0/
1&
#55000
1!
1/
0&
01
12
0%
1$
#60000
1#
0"
0!
1.
00
0/
1&
11
02
1%
0$
#65000
1!
1/
0&
01
12
0%
1$
#70000
1"
0!
10
0/
1&
#75000
1!
1/
0&
11
1%
#80000
0#
0"
0!
0.
00
0/
1&
01
02
0%
0$
#85000
1!
1/
0&
11
1%
#90000
1"
0!
10
0/
1&
#95000
1!
1/
0&
01
12
0%
1$
#100000
1#
0"
0!
1.
00
0/
1&
11
02
1%
0$
#105000
1!
1/
0&
01
12
0%
1$
#110000
1"
0!
10
0/
1&
#115000
1!
1/
0&
11
1%
#120000
0#
0"
0!
0.
00
0/
1&
01
02
0%
0$
#125000
1!
1/
0&
11
1%
#130000
1"
0!
10
0/
1&
#135000
1!
1/
0&
01
12
0%
1$
#140000
1#
0"
0!
1.
00
0/
1&
11
02
1%
0$
#145000
1!
1/
0&
01
12
0%
1$
#150000
1"
0!
10
0/
1&
#155000
1!
1/
0&
11
1%
#160000
0#
0"
0!
0.
00
0/
1&
01
02
0%
0$
#165000
1!
1/
0&
11
1%
#170000
1"
0!
10
0/
1&
#175000
1!
1/
0&
01
12
0%
1$
#180000
1#
0"
0!
1.
00
0/
1&
11
02
1%
0$
#185000
1!
1/
0&
01
12
0%
1$
#190000
1"
0!
10
0/
1&
#195000
1!
1/
0&
11
1%
#200000
0#
0"
0!
0.
00
0/
1&
01
02
0%
0$
#205000
1!
1/
0&
11
1%
#210000
1"
0!
10
0/
1&
#215000
1!
1/
0&
01
12
0%
1$
#220000
1#
0"
0!
1.
00
0/
1&
11
02
1%
0$
#225000
1!
1/
0&
01
12
0%
1$
#230000
1"
0!
10
0/
1&
#235000
1!
1/
0&
11
1%
#240000
0#
0"
0!
0.
00
0/
1&
01
02
0%
0$
#245000
1!
1/
0&
11
1%
#250000
1"
0!
10
0/
1&
#255000
1!
1/
0&
01
12
0%
1$
#260000
1#
0"
0!
1.
00
0/
1&
11
02
1%
0$
#265000
1!
1/
0&
01
12
0%
1$
#270000
1"
0!
10
0/
1&
#275000
1!
1/
0&
11
1%
#280000
0#
0"
0!
0.
00
0/
1&
01
02
0%
0$
#285000
1!
1/
0&
11
1%
#290000
1"
0!
10
0/
1&
#295000
1!
1/
0&
01
12
0%
1$
#300000
1#
0"
0!
1.
00
0/
1&
11
02
1%
0$
#305000
1!
1/
0&
01
12
0%
1$
#310000
1"
0!
10
0/
1&
#315000
1!
1/
0&
11
1%
#320000
0#
0"
0!
0.
00
0/
1&
01
02
0%
0$
#325000
1!
1/
0&
11
1%
#330000
1"
0!
10
0/
1&
#335000
1!
1/
0&
01
12
0%
1$
#340000
1#
0"
0!
1.
00
0/
1&
11
02
1%
0$
#345000
1!
1/
0&
01
12
0%
1$
#350000
1"
0!
10
0/
1&
#355000
1!
1/
0&
11
1%
#360000
0#
0"
0!
0.
00
0/
1&
01
02
0%
0$
#365000
1!
1/
0&
11
1%
#370000
1"
0!
10
0/
1&
#375000
1!
1/
0&
01
12
0%
1$
#380000
1#
0"
0!
1.
00
0/
1&
11
02
1%
0$
#385000
1!
1/
0&
01
12
0%
1$
#390000
1"
0!
10
0/
1&
#395000
1!
1/
0&
11
1%
#400000
0#
0"
0!
0.
00
0/
1&
01
02
0%
0$
#405000
1!
1/
0&
11
1%
#410000
1"
0!
10
0/
1&
#415000
1!
1/
0&
01
12
0%
1$
#420000
1#
0"
0!
1.
00
0/
1&
11
02
1%
0$
#425000
1!
1/
0&
01
12
0%
1$
#430000
1"
0!
10
0/
1&
#435000
1!
1/
0&
11
1%
#440000
0#
0"
0!
0.
00
0/
1&
01
02
0%
0$
#445000
1!
1/
0&
11
1%
#450000
1"
0!
10
0/
1&
#455000
1!
1/
0&
01
12
0%
1$
#460000
1#
0"
0!
1.
00
0/
1&
11
02
1%
0$
#465000
1!
1/
0&
01
12
0%
1$
#470000
1"
0!
10
0/
1&
#475000
1!
1/
0&
11
1%
#480000
0#
0"
0!
0.
00
0/
1&
01
02
0%
0$
#485000
1!
1/
0&
11
1%
#490000
1"
0!
10
0/
1&
#495000
1!
1/
0&
01
12
0%
1$
#500000
1#
0"
0!
1.
00
0/
1&
11
02
1%
0$
#505000
1!
1/
0&
01
12
0%
1$
#510000
1"
0!
10
0/
1&
#515000
1!
1/
0&
11
1%
#520000
0#
0"
0!
0.
00
0/
1&
01
02
0%
0$
#525000
1!
1/
0&
11
1%
#530000
1"
0!
10
0/
1&
#535000
1!
1/
0&
01
12
0%
1$
#540000
1#
0"
0!
1.
00
0/
1&
11
02
1%
0$
#545000
1!
1/
0&
01
12
0%
1$
#550000
1"
0!
10
0/
1&
#555000
1!
1/
0&
11
1%
#560000
0#
0"
0!
0.
00
0/
1&
01
02
0%
0$
#565000
1!
1/
0&
11
1%
#570000
1"
0!
10
0/
1&
#575000
1!
1/
0&
01
12
0%
1$
#580000
1#
0"
0!
1.
00
0/
1&
11
02
1%
0$
#585000
1!
1/
0&
01
12
0%
1$
#590000
1"
0!
10
0/
1&
#595000
1!
1/
0&
11
1%
#600000
0#
0"
0!
0.
00
0/
1&
01
02
0%
0$
#605000
1!
1/
0&
11
1%
#610000
1"
0!
10
0/
1&
#615000
1!
1/
0&
01
12
0%
1$
#620000
1#
0"
0!
1.
00
0/
1&
11
02
1%
0$
#625000
1!
1/
0&
01
12
0%
1$
#630000
1"
0!
10
0/
1&
#635000
1!
1/
0&
11
1%
#640000
0#
0"
0!
0.
00
0/
1&
01
02
0%
0$
#645000
1!
1/
0&
11
1%
#650000
1"
0!
10
0/
1&
#655000
1!
1/
0&
01
12
0%
1$
#660000
1#
0"
0!
1.
00
0/
1&
11
02
1%
0$
#665000
1!
1/
0&
01
12
0%
1$
#670000
1"
0!
10
0/
1&
#675000
1!
1/
0&
11
1%
#680000
0#
0"
0!
0.
00
0/
1&
01
02
0%
0$
#685000
1!
1/
0&
11
1%
#690000
1"
0!
10
0/
1&
#695000
1!
1/
0&
01
12
0%
1$
#700000
1#
0"
0!
1.
00
0/
1&
11
02
1%
0$
#705000
1!
1/
0&
01
12
0%
1$
#710000
1"
0!
10
0/
1&
#715000
1!
1/
0&
11
1%
#720000
0#
0"
0!
0.
00
0/
1&
01
02
0%
0$
#725000
1!
1/
0&
11
1%
#730000
1"
0!
10
0/
1&
#735000
1!
1/
0&
01
12
0%
1$
#740000
1#
0"
0!
1.
00
0/
1&
11
02
1%
0$
#745000
1!
1/
0&
01
12
0%
1$
#750000
1"
0!
10
0/
1&
#755000
1!
1/
0&
11
1%
#760000
0#
0"
0!
0.
00
0/
1&
01
02
0%
0$
#765000
1!
1/
0&
11
1%
#770000
1"
0!
10
0/
1&
#775000
1!
1/
0&
01
12
0%
1$
#780000
1#
0"
0!
1.
00
0/
1&
11
02
1%
0$
#785000
1!
1/
0&
01
12
0%
1$
#790000
1"
0!
10
0/
1&
#795000
1!
1/
0&
11
1%
#800000
0#
0"
0!
0.
00
0/
1&
01
02
0%
0$
#805000
1!
1/
0&
11
1%
#810000
1"
0!
10
0/
1&
#815000
1!
1/
0&
01
12
0%
1$
#820000
1#
0"
0!
1.
00
0/
1&
11
02
1%
0$
#825000
1!
1/
0&
01
12
0%
1$
#830000
1"
0!
10
0/
1&
#835000
1!
1/
0&
11
1%
#840000
0#
0"
0!
0.
00
0/
1&
01
02
0%
0$
#845000
1!
1/
0&
11
1%
#850000
1"
0!
10
0/
1&
#855000
1!
1/
0&
01
12
0%
1$
#860000
1#
0"
0!
1.
00
0/
1&
11
02
1%
0$
#865000
1!
1/
0&
01
12
0%
1$
#870000
1"
0!
10
0/
1&
#875000
1!
1/
0&
11
1%
#880000
0#
0"
0!
0.
00
0/
1&
01
02
0%
0$
#885000
1!
1/
0&
11
1%
#890000
1"
0!
10
0/
1&
#895000
1!
1/
0&
01
12
0%
1$
#900000
1#
0"
0!
1.
00
0/
1&
11
02
1%
0$
#905000
1!
1/
0&
01
12
0%
1$
#910000
1"
0!
10
0/
1&
#915000
1!
1/
0&
11
1%
#920000
0#
0"
0!
0.
00
0/
1&
01
02
0%
0$
#925000
1!
1/
0&
11
1%
#930000
1"
0!
10
0/
1&
#935000
1!
1/
0&
01
12
0%
1$
#940000
1#
0"
0!
1.
00
0/
1&
11
02
1%
0$
#945000
1!
1/
0&
01
12
0%
1$
#950000
1"
0!
10
0/
1&
#955000
1!
1/
0&
11
1%
#960000
0#
0"
0!
0.
00
0/
1&
01
02
0%
0$
#965000
1!
1/
0&
11
1%
#970000
1"
0!
10
0/
1&
#975000
1!
1/
0&
01
12
0%
1$
#980000
1#
0"
0!
1.
00
0/
1&
11
02
1%
0$
#985000
1!
1/
0&
01
12
0%
1$
#990000
1"
0!
10
0/
1&
#995000
1!
1/
0&
11
1%
