Mini-Calculator/AULA7A/simulation/qsim/topo.msim.vcd
$comment
	File created using the following command:
		vcd file topo.msim.vcd -direction
$end
$date
	Wed Jul 11 15:09:55 2018
$end
$version
	ModelSim Version 10.1d
$end
$timescale
	1ps
$end
$scope module topo_vlg_vec_tst $end
$var reg 2 ! KEY [1:0] $end
$var wire 1 " HEX0 [6] $end
$var wire 1 # HEX0 [5] $end
$var wire 1 $ HEX0 [4] $end
$var wire 1 % HEX0 [3] $end
$var wire 1 & HEX0 [2] $end
$var wire 1 ' HEX0 [1] $end
$var wire 1 ( HEX0 [0] $end
$var wire 1 ) LEDR [9] $end
$var wire 1 * LEDR [8] $end
$var wire 1 + LEDR [7] $end
$var wire 1 , LEDR [6] $end
$var wire 1 - LEDR [5] $end
$var wire 1 . LEDR [4] $end
$var wire 1 / LEDR [3] $end
$var wire 1 0 LEDR [2] $end
$var wire 1 1 LEDR [1] $end
$var wire 1 2 LEDR [0] $end
$var wire 1 3 sampler $end
$scope module i1 $end
$var wire 1 4 gnd $end
$var wire 1 5 vcc $end
$var wire 1 6 unknown $end
$var tri1 1 7 devclrn $end
$var tri1 1 8 devpor $end
$var tri1 1 9 devoe $end
$var wire 1 : KEY[1]~input_o $end
$var wire 1 ; ~QUARTUS_CREATED_GND~I_combout $end
$var wire 1 < KEY[1]~inputCLKENA0_outclk $end
$var wire 1 = KEY[0]~input_o $end
$var wire 1 > L0|Q[1]~DUPLICATE_q $end
$var wire 1 ? QQ[0]~1_combout $end
$var wire 1 @ L0|Q[0]~DUPLICATE_q $end
$var wire 1 A L0|Q[2]~DUPLICATE_q $end
$var wire 1 B L2|F~0_combout $end
$var wire 1 C L2|F[1]~1_combout $end
$var wire 1 D QQ[0]~0_combout $end
$var wire 1 E L2|F[3]~2_combout $end
$var wire 1 F L2|F[4]~3_combout $end
$var wire 1 G L2|F[5]~4_combout $end
$var wire 1 H L2|F[6]~5_combout $end
$var wire 1 I QQ [3] $end
$var wire 1 J QQ [2] $end
$var wire 1 K QQ [1] $end
$var wire 1 L QQ [0] $end
$var wire 1 M L0|Q [3] $end
$var wire 1 N L0|Q [2] $end
$var wire 1 O L0|Q [1] $end
$var wire 1 P L0|Q [0] $end
$upscope $end
$upscope $end
$enddefinitions $end
#0
$dumpvars
b0 !
0(
0'
0&
0%
0$
0#
1"
02
01
00
0/
0.
0-
0,
0+
0*
0)
x3
04
15
x6
17
18
19
0:
0;
0<
0=
0>
0?
0@
0A
0B
0C
0D
0E
0F
0G
1H
zL
0K
0J
zI
0P
0O
0N
zM
$end
#5000
b10 !
1:
1<
03
#10000
b0 !
0:
0<
13
#15000
b10 !
1:
1<
03
#20000
b11 !
b1 !
1=
0:
0<
13
#25000
b11 !
1:
1<
03
#30000
b1 !
0:
0<
13
#35000
b11 !
1:
1<
03
#40000
b10 !
b0 !
0=
0:
0<
13
#45000
b10 !
1:
1<
03
#50000
b0 !
0:
0<
13
#55000
b10 !
1:
1<
03
#60000
b11 !
b1 !
1=
0:
0<
13
#65000
b11 !
1:
1<
03
#70000
b1 !
0:
0<
13
#75000
b11 !
1:
1<
03
#80000
b10 !
b0 !
0=
0:
0<
13
#85000
b10 !
1:
1<
03
#90000
b0 !
0:
0<
13
#95000
b10 !
1:
1<
03
#100000
b11 !
b1 !
1=
0:
0<
13
#105000
b11 !
1:
1<
03
#110000
b1 !
0:
0<
13
#115000
b11 !
1:
1<
03
#120000
b10 !
b0 !
0=
0:
0<
13
#125000
b10 !
1:
1<
03
#130000
b0 !
0:
0<
13
#135000
b10 !
1:
1<
03
#140000
b11 !
b1 !
1=
0:
0<
13
#145000
b11 !
1:
1<
03
#150000
b1 !
0:
0<
13
#155000
b11 !
1:
1<
03
#160000
b10 !
b0 !
0=
0:
0<
13
#165000
b10 !
1:
1<
03
#170000
b0 !
0:
0<
13
#175000
b10 !
1:
1<
03
#180000
b11 !
b1 !
1=
0:
0<
13
#185000
b11 !
1:
1<
03
#190000
b1 !
0:
0<
13
#195000
b11 !
1:
1<
03
#200000
b10 !
b0 !
0=
0:
0<
13
#205000
b10 !
1:
1<
03
#210000
b0 !
0:
0<
13
#215000
b10 !
1:
1<
03
#220000
b11 !
b1 !
1=
0:
0<
13
#225000
b11 !
1:
1<
03
#230000
b1 !
0:
0<
13
#235000
b11 !
1:
1<
03
#240000
b10 !
b0 !
0=
0:
0<
13
#245000
b10 !
1:
1<
03
#250000
b0 !
0:
0<
13
#255000
b10 !
1:
1<
03
#260000
b11 !
b1 !
1=
0:
0<
13
#265000
b11 !
1:
1<
03
#270000
b1 !
0:
0<
13
#275000
b11 !
1:
1<
03
#280000
b10 !
b0 !
0=
0:
0<
13
#285000
b10 !
1:
1<
03
#290000
b0 !
0:
0<
13
#295000
b10 !
1:
1<
03
#300000
b11 !
b1 !
1=
0:
0<
13
#305000
b11 !
1:
1<
03
#310000
b1 !
0:
0<
13
#315000
b11 !
1:
1<
03
#320000
b10 !
b0 !
0=
0:
0<
13
#325000
b10 !
1:
1<
03
#330000
b0 !
0:
0<
13
#335000
b10 !
1:
1<
03
#340000
b11 !
b1 !
1=
0:
0<
13
#345000
b11 !
1:
1<
03
#350000
b1 !
0:
0<
13
#355000
b11 !
1:
1<
03
#360000
b10 !
b0 !
0=
0:
0<
13
#365000
b10 !
1:
1<
03
#370000
b0 !
0:
0<
13
#375000
b10 !
1:
1<
03
#380000
b11 !
b1 !
1=
0:
0<
13
#385000
b11 !
1:
1<
03
#390000
b1 !
0:
0<
13
#395000
b11 !
1:
1<
03
#400000
b10 !
b0 !
0=
0:
0<
13
#405000
b10 !
1:
1<
03
#410000
b0 !
0:
0<
13
#415000
b10 !
1:
1<
03
#420000
b11 !
b1 !
1=
0:
0<
13
#425000
b11 !
1:
1<
03
#430000
b1 !
0:
0<
13
#435000
b11 !
1:
1<
03
#440000
b10 !
b0 !
0=
0:
0<
13
#445000
b10 !
1:
1<
03
#450000
b0 !
0:
0<
13
#455000
b10 !
1:
1<
03
#460000
b11 !
b1 !
1=
0:
0<
13
#465000
b11 !
1:
1<
03
#470000
b1 !
0:
0<
13
#475000
b11 !
1:
1<
03
#480000
b10 !
b0 !
0=
0:
0<
13
#485000
b10 !
1:
1<
03
#490000
b0 !
0:
0<
13
#495000
b10 !
1:
1<
03
#500000
b11 !
b1 !
1=
0:
0<
13
#505000
b11 !
1:
1<
03
#510000
b1 !
0:
0<
13
#515000
b11 !
1:
1<
03
#520000
b10 !
b0 !
0=
0:
0<
13
#525000
b10 !
1:
1<
03
#530000
b0 !
0:
0<
13
#535000
b10 !
1:
1<
03
#540000
b11 !
b1 !
1=
0:
0<
13
#545000
b11 !
1:
1<
03
#550000
b1 !
0:
0<
13
#555000
b11 !
1:
1<
03
#560000
b10 !
b0 !
0=
0:
0<
13
#565000
b10 !
1:
1<
03
#570000
b0 !
0:
0<
13
#575000
b10 !
1:
1<
03
#580000
b11 !
b1 !
1=
0:
0<
13
#585000
b11 !
1:
1<
03
#590000
b1 !
0:
0<
13
#595000
b11 !
1:
1<
03
#600000
b10 !
b0 !
0=
0:
0<
13
#605000
b10 !
1:
1<
03
#610000
b0 !
0:
0<
13
#615000
b10 !
1:
1<
03
#620000
b11 !
b1 !
1=
0:
0<
13
#625000
b11 !
1:
1<
03
#630000
b1 !
0:
0<
13
#635000
b11 !
1:
1<
03
#640000
b10 !
b0 !
0=
0:
0<
13
#645000
b10 !
1:
1<
03
#650000
b0 !
0:
0<
13
#655000
b10 !
1:
1<
03
#660000
b11 !
b1 !
1=
0:
0<
13
#665000
b11 !
1:
1<
03
#670000
b1 !
0:
0<
13
#675000
b11 !
1:
1<
03
#680000
b10 !
b0 !
0=
0:
0<
13
#685000
b10 !
1:
1<
03
#690000
b0 !
0:
0<
13
#695000
b10 !
1:
1<
03
#700000
b11 !
b1 !
1=
0:
0<
13
#705000
b11 !
1:
1<
03
#710000
b1 !
0:
0<
13
#715000
b11 !
1:
1<
03
#720000
b10 !
b0 !
0=
0:
0<
13
#725000
b10 !
1:
1<
03
#730000
b0 !
0:
0<
13
#735000
b10 !
1:
1<
03
#740000
b11 !
b1 !
1=
0:
0<
13
#745000
b11 !
1:
1<
03
#750000
b1 !
0:
0<
13
#755000
b11 !
1:
1<
03
#760000
b10 !
b0 !
0=
0:
0<
13
#765000
b10 !
1:
1<
03
#770000
b0 !
0:
0<
13
#775000
b10 !
1:
1<
03
#780000
b11 !
b1 !
1=
0:
0<
13
#785000
b11 !
1:
1<
03
#790000
b1 !
0:
0<
13
#795000
b11 !
1:
1<
03
#800000
b10 !
b0 !
0=
0:
0<
13
#805000
b10 !
1:
1<
03
#810000
b0 !
0:
0<
13
#815000
b10 !
1:
1<
03
#820000
b11 !
b1 !
1=
0:
0<
13
#825000
b11 !
1:
1<
03
#830000
b1 !
0:
0<
13
#835000
b11 !
1:
1<
03
#840000
b10 !
b0 !
0=
0:
0<
13
#845000
b10 !
1:
1<
03
#850000
b0 !
0:
0<
13
#855000
b10 !
1:
1<
03
#860000
b11 !
b1 !
1=
0:
0<
13
#865000
b11 !
1:
1<
03
#870000
b1 !
0:
0<
13
#875000
b11 !
1:
1<
03
#880000
b10 !
b0 !
0=
0:
0<
13
#885000
b10 !
1:
1<
03
#890000
b0 !
0:
0<
13
#895000
b10 !
1:
1<
03
#900000
b11 !
b1 !
1=
0:
0<
13
#905000
b11 !
1:
1<
03
#910000
b1 !
0:
0<
13
#915000
b11 !
1:
1<
03
#920000
b10 !
b0 !
0=
0:
0<
13
#925000
b10 !
1:
1<
03
#930000
b0 !
0:
0<
13
#935000
b10 !
1:
1<
03
#940000
b11 !
b1 !
1=
0:
0<
13
#945000
b11 !
1:
1<
03
#950000
b1 !
0:
0<
13
#955000
b11 !
1:
1<
03
#960000
b10 !
b0 !
0=
0:
0<
13
#965000
b10 !
1:
1<
03
#970000
b0 !
0:
0<
13
#975000
b10 !
1:
1<
03
#980000
b11 !
b1 !
1=
0:
0<
13
#985000
b11 !
1:
1<
03
#990000
b1 !
0:
0<
13
#995000
b11 !
1:
1<
03
