Mini-Calculator/AULA7B/simulation/qsim/topo.msim.vcd
$comment
	File created using the following command:
		vcd file topo.msim.vcd -direction
$end
$date
	Thu Jul 12 10:12:47 2018
$end
$version
	ModelSim Version 10.1d
$end
$timescale
	1ps
$end
$scope module topo_vlg_vec_tst $end
$var reg 2 ! KEY [1:0] $end
$var wire 1 " HEX [6] $end
$var wire 1 # HEX [5] $end
$var wire 1 $ HEX [4] $end
$var wire 1 % HEX [3] $end
$var wire 1 & HEX [2] $end
$var wire 1 ' HEX [1] $end
$var wire 1 ( HEX [0] $end
$var wire 1 ) LEDR [3] $end
$var wire 1 * LEDR [2] $end
$var wire 1 + LEDR [1] $end
$var wire 1 , LEDR [0] $end
$var wire 1 - sampler $end
$scope module i1 $end
$var wire 1 . gnd $end
$var wire 1 / vcc $end
$var wire 1 0 unknown $end
$var tri1 1 1 devclrn $end
$var tri1 1 2 devpor $end
$var tri1 1 3 devoe $end
$var wire 1 4 KEY[0]~input_o $end
$var wire 1 5 ~QUARTUS_CREATED_GND~I_combout $end
$var wire 1 6 KEY[0]~inputCLKENA0_outclk $end
$var wire 1 7 L0|EA.E2~feeder_combout $end
$var wire 1 8 KEY[1]~input_o $end
$var wire 1 9 L0|EA.E2~DUPLICATE_q $end
$var wire 1 : L0|EA.E3~q $end
$var wire 1 ; L0|EA.E4~feeder_combout $end
$var wire 1 < L0|EA.E4~q $end
$var wire 1 = L0|EA.E0~0_combout $end
$var wire 1 > L0|EA.E0~q $end
$var wire 1 ? L0|EA.E1~0_combout $end
$var wire 1 @ L0|EA.E1~q $end
$var wire 1 A L0|contagem~4_combout $end
$var wire 1 B L0|EA.E2~q $end
$var wire 1 C L1|F~0_combout $end
$var wire 1 D L1|F[1]~1_combout $end
$var wire 1 E L1|F[2]~2_combout $end
$var wire 1 F L1|F[4]~3_combout $end
$var wire 1 G L1|F[6]~4_combout $end
$var wire 1 H L0|contagem [3] $end
$var wire 1 I L0|contagem [2] $end
$var wire 1 J L0|contagem [1] $end
$var wire 1 K L0|contagem [0] $end
$upscope $end
$upscope $end
$enddefinitions $end
#0
$dumpvars
b0 !
1(
0'
0&
1%
1$
1#
1"
1,
0+
0*
0)
x-
0.
1/
x0
11
12
13
04
05
06
07
08
09
0:
0;
0<
1=
0>
1?
0@
0A
0B
0C
0D
1E
0F
0G
zK
0J
0I
zH
$end
#5000
b1 !
14
16
0-
1@
1>
17
1A
1C
0E
1F
1G
0?
1J
0,
0(
0%
1&
0$
0"
1+
#10000
b0 !
04
06
1-
#15000
b1 !
14
16
0-
1B
0@
19
0F
07
0A
1E
1$
1,
0&
#20000
b0 !
04
06
1-
#25000
b1 !
14
16
0-
0B
1:
09
0C
1;
1A
1I
0J
1(
1%
0,
1*
0+
0#
#30000
b0 !
04
06
1-
#35000
b1 !
14
16
0-
1<
0:
0=
1C
0;
0A
1D
0(
0%
1,
1'
#40000
b0 !
04
06
1-
#45000
b1 !
14
16
0-
0>
0<
1?
1=
0C
0G
0I
0D
1(
1%
1"
0*
0'
1#
#50000
b0 !
04
06
1-
#55000
b1 !
14
16
0-
1@
1>
17
1A
1C
0E
1F
1G
0?
1J
0,
0(
0%
1&
0$
0"
1+
#60000
b0 !
04
06
1-
#65000
b1 !
14
16
0-
1B
0@
19
0F
07
0A
1E
1$
1,
0&
#70000
b0 !
04
06
1-
#75000
b1 !
14
16
0-
0B
1:
09
0C
1;
1A
1I
0J
1(
1%
0,
1*
0+
0#
#80000
b11 !
b10 !
04
18
06
1-
0:
0>
0;
0A
0G
1?
0I
1,
1"
0*
1#
#85000
b11 !
14
16
0-
#90000
b1 !
b0 !
04
08
06
1-
#95000
b1 !
14
16
0-
1@
1>
17
1A
1C
0E
1F
1G
0?
1J
0,
0(
0%
1&
0$
0"
1+
#100000
b0 !
04
06
1-
#105000
b1 !
14
16
0-
1B
0@
19
0F
07
0A
1E
1$
1,
0&
#110000
b0 !
04
06
1-
#115000
b1 !
14
16
0-
0B
1:
09
0C
1;
1A
1I
0J
1(
1%
0,
1*
0+
0#
#120000
b11 !
b10 !
04
18
06
1-
0:
0>
0;
0A
0G
1?
0I
1,
1"
0*
1#
#125000
b11 !
14
16
0-
#130000
b1 !
b0 !
04
08
06
1-
#135000
b1 !
14
16
0-
1@
1>
17
1A
1C
0E
1F
1G
0?
1J
0,
0(
0%
1&
0$
0"
1+
#140000
b0 !
04
06
1-
#145000
b1 !
14
16
0-
1B
0@
19
0F
07
0A
1E
1$
1,
0&
#150000
b11 !
b10 !
04
18
06
1-
09
0>
0B
1?
0C
0G
0J
1(
1%
1"
0+
#155000
b11 !
14
16
0-
#160000
b1 !
b0 !
04
08
06
1-
#165000
b1 !
14
16
0-
1@
1>
17
1A
1C
0E
1F
1G
0?
1J
0,
0(
0%
1&
0$
0"
1+
#170000
b0 !
04
06
1-
#175000
b1 !
14
16
0-
1B
0@
19
0F
07
0A
1E
1$
1,
0&
#180000
b0 !
04
06
1-
#185000
b1 !
14
16
0-
0B
1:
09
0C
1;
1A
1I
0J
1(
1%
0,
1*
0+
0#
#190000
b0 !
04
06
1-
#195000
b1 !
14
16
0-
1<
0:
0=
1C
0;
0A
1D
0(
0%
1,
1'
#200000
b11 !
b10 !
04
18
06
1-
0<
0>
1=
0C
0G
1?
0I
0D
1(
1%
1"
0*
0'
1#
#205000
b11 !
14
16
0-
#210000
b10 !
04
06
1-
#215000
b11 !
14
16
0-
#220000
b1 !
b0 !
04
08
06
1-
#225000
b1 !
14
16
0-
1@
1>
17
1A
1C
0E
1F
1G
0?
1J
0,
0(
0%
1&
0$
0"
1+
#230000
b0 !
04
06
1-
#235000
b1 !
14
16
0-
1B
0@
19
0F
07
0A
1E
1$
1,
0&
#240000
b0 !
04
06
1-
#245000
b1 !
14
16
0-
0B
1:
09
0C
1;
1A
1I
0J
1(
1%
0,
1*
0+
0#
#250000
b0 !
04
06
1-
#255000
b1 !
14
16
0-
1<
0:
0=
1C
0;
0A
1D
0(
0%
1,
1'
#260000
b0 !
04
06
1-
#265000
b1 !
14
16
0-
0>
0<
1?
1=
0C
0G
0I
0D
1(
1%
1"
0*
0'
1#
#270000
b11 !
b10 !
04
18
06
1-
#275000
b11 !
14
16
0-
#280000
b1 !
b0 !
04
08
06
1-
#285000
b1 !
14
16
0-
1@
1>
17
1A
1C
0E
1F
1G
0?
1J
0,
0(
0%
1&
0$
0"
1+
#290000
b0 !
04
06
1-
#295000
b1 !
14
16
0-
1B
0@
19
0F
07
0A
1E
1$
1,
0&
#300000
b0 !
04
06
1-
#305000
b1 !
14
16
0-
0B
1:
09
0C
1;
1A
1I
0J
1(
1%
0,
1*
0+
0#
#310000
b0 !
04
06
1-
#315000
b1 !
14
16
0-
1<
0:
0=
1C
0;
0A
1D
0(
0%
1,
1'
#320000
b0 !
04
06
1-
#325000
b1 !
14
16
0-
0>
0<
1?
1=
0C
0G
0I
0D
1(
1%
1"
0*
0'
1#
#330000
b0 !
04
06
1-
#335000
b1 !
14
16
0-
1@
1>
17
1A
1C
0E
1F
1G
0?
1J
0,
0(
0%
1&
0$
0"
1+
#340000
b0 !
04
06
1-
#345000
b1 !
14
16
0-
1B
0@
19
0F
07
0A
1E
1$
1,
0&
#350000
b0 !
04
06
1-
#355000
b1 !
14
16
0-
0B
1:
09
0C
1;
1A
1I
0J
1(
1%
0,
1*
0+
0#
#360000
b0 !
04
06
1-
#365000
b1 !
14
16
0-
1<
0:
0=
1C
0;
0A
1D
0(
0%
1,
1'
#370000
b0 !
04
06
1-
#375000
b1 !
14
16
0-
0>
0<
1?
1=
0C
0G
0I
0D
1(
1%
1"
0*
0'
1#
#380000
b0 !
04
06
1-
#385000
b1 !
14
16
0-
1@
1>
17
1A
1C
0E
1F
1G
0?
1J
0,
0(
0%
1&
0$
0"
1+
#390000
b0 !
04
06
1-
#395000
b1 !
14
16
0-
1B
0@
19
0F
07
0A
1E
1$
1,
0&
#400000
b0 !
04
06
1-
#405000
b1 !
14
16
0-
0B
1:
09
0C
1;
1A
1I
0J
1(
1%
0,
1*
0+
0#
#410000
b0 !
04
06
1-
#415000
b1 !
14
16
0-
1<
0:
0=
1C
0;
0A
1D
0(
0%
1,
1'
#420000
b0 !
04
06
1-
#425000
b1 !
14
16
0-
0>
0<
1?
1=
0C
0G
0I
0D
1(
1%
1"
0*
0'
1#
#430000
b0 !
04
06
1-
#435000
b1 !
14
16
0-
1@
1>
17
1A
1C
0E
1F
1G
0?
1J
0,
0(
0%
1&
0$
0"
1+
#440000
b0 !
04
06
1-
#445000
b1 !
14
16
0-
1B
0@
19
0F
07
0A
1E
1$
1,
0&
#450000
b0 !
04
06
1-
#455000
b1 !
14
16
0-
0B
1:
09
0C
1;
1A
1I
0J
1(
1%
0,
1*
0+
0#
#460000
b0 !
04
06
1-
#465000
b1 !
14
16
0-
1<
0:
0=
1C
0;
0A
1D
0(
0%
1,
1'
#470000
b0 !
04
06
1-
#475000
b1 !
14
16
0-
0>
0<
1?
1=
0C
0G
0I
0D
1(
1%
1"
0*
0'
1#
#480000
b0 !
04
06
1-
#485000
b1 !
14
16
0-
1@
1>
17
1A
1C
0E
1F
1G
0?
1J
0,
0(
0%
1&
0$
0"
1+
#490000
b0 !
04
06
1-
#495000
b1 !
14
16
0-
1B
0@
19
0F
07
0A
1E
1$
1,
0&
#500000
b0 !
04
06
1-
#505000
b1 !
14
16
0-
0B
1:
09
0C
1;
1A
1I
0J
1(
1%
0,
1*
0+
0#
#510000
b0 !
04
06
1-
#515000
b1 !
14
16
0-
1<
0:
0=
1C
0;
0A
1D
0(
0%
1,
1'
#520000
b0 !
04
06
1-
#525000
b1 !
14
16
0-
0>
0<
1?
1=
0C
0G
0I
0D
1(
1%
1"
0*
0'
1#
#530000
b0 !
04
06
1-
#535000
b1 !
14
16
0-
1@
1>
17
1A
1C
0E
1F
1G
0?
1J
0,
0(
0%
1&
0$
0"
1+
#540000
b0 !
04
06
1-
#545000
b1 !
14
16
0-
1B
0@
19
0F
07
0A
1E
1$
1,
0&
#550000
b0 !
04
06
1-
#555000
b1 !
14
16
0-
0B
1:
09
0C
1;
1A
1I
0J
1(
1%
0,
1*
0+
0#
#560000
b0 !
04
06
1-
#565000
b1 !
14
16
0-
1<
0:
0=
1C
0;
0A
1D
0(
0%
1,
1'
#570000
b0 !
04
06
1-
#575000
b1 !
14
16
0-
0>
0<
1?
1=
0C
0G
0I
0D
1(
1%
1"
0*
0'
1#
#580000
b0 !
04
06
1-
#585000
b1 !
14
16
0-
1@
1>
17
1A
1C
0E
1F
1G
0?
1J
0,
0(
0%
1&
0$
0"
1+
#590000
b0 !
04
06
1-
#595000
b1 !
14
16
0-
1B
0@
19
0F
07
0A
1E
1$
1,
0&
#600000
b0 !
04
06
1-
#605000
b1 !
14
16
0-
0B
1:
09
0C
1;
1A
1I
0J
1(
1%
0,
1*
0+
0#
#610000
b0 !
04
06
1-
#615000
b1 !
14
16
0-
1<
0:
0=
1C
0;
0A
1D
0(
0%
1,
1'
#620000
b0 !
04
06
1-
#625000
b1 !
14
16
0-
0>
0<
1?
1=
0C
0G
0I
0D
1(
1%
1"
0*
0'
1#
#630000
b0 !
04
06
1-
#635000
b1 !
14
16
0-
1@
1>
17
1A
1C
0E
1F
1G
0?
1J
0,
0(
0%
1&
0$
0"
1+
#640000
b0 !
04
06
1-
#645000
b1 !
14
16
0-
1B
0@
19
0F
07
0A
1E
1$
1,
0&
#650000
b0 !
04
06
1-
#655000
b1 !
14
16
0-
0B
1:
09
0C
1;
1A
1I
0J
1(
1%
0,
1*
0+
0#
#660000
b0 !
04
06
1-
#665000
b1 !
14
16
0-
1<
0:
0=
1C
0;
0A
1D
0(
0%
1,
1'
#670000
b0 !
04
06
1-
#675000
b1 !
14
16
0-
0>
0<
1?
1=
0C
0G
0I
0D
1(
1%
1"
0*
0'
1#
#680000
b0 !
04
06
1-
#685000
b1 !
14
16
0-
1@
1>
17
1A
1C
0E
1F
1G
0?
1J
0,
0(
0%
1&
0$
0"
1+
#690000
b0 !
04
06
1-
#695000
b1 !
14
16
0-
1B
0@
19
0F
07
0A
1E
1$
1,
0&
#700000
b0 !
04
06
1-
#705000
b1 !
14
16
0-
0B
1:
09
0C
1;
1A
1I
0J
1(
1%
0,
1*
0+
0#
#710000
b0 !
04
06
1-
#715000
b1 !
14
16
0-
1<
0:
0=
1C
0;
0A
1D
0(
0%
1,
1'
#720000
b0 !
04
06
1-
#725000
b1 !
14
16
0-
0>
0<
1?
1=
0C
0G
0I
0D
1(
1%
1"
0*
0'
1#
#730000
b0 !
04
06
1-
#735000
b1 !
14
16
0-
1@
1>
17
1A
1C
0E
1F
1G
0?
1J
0,
0(
0%
1&
0$
0"
1+
#740000
b0 !
04
06
1-
#745000
b1 !
14
16
0-
1B
0@
19
0F
07
0A
1E
1$
1,
0&
#750000
b0 !
04
06
1-
#755000
b1 !
14
16
0-
0B
1:
09
0C
1;
1A
1I
0J
1(
1%
0,
1*
0+
0#
#760000
b0 !
04
06
1-
#765000
b1 !
14
16
0-
1<
0:
0=
1C
0;
0A
1D
0(
0%
1,
1'
#770000
b0 !
04
06
1-
#775000
b1 !
14
16
0-
0>
0<
1?
1=
0C
0G
0I
0D
1(
1%
1"
0*
0'
1#
#780000
b0 !
04
06
1-
#785000
b1 !
14
16
0-
1@
1>
17
1A
1C
0E
1F
1G
0?
1J
0,
0(
0%
1&
0$
0"
1+
#790000
b0 !
04
06
1-
#795000
b1 !
14
16
0-
1B
0@
19
0F
07
0A
1E
1$
1,
0&
#800000
b0 !
04
06
1-
#805000
b1 !
14
16
0-
0B
1:
09
0C
1;
1A
1I
0J
1(
1%
0,
1*
0+
0#
#810000
b0 !
04
06
1-
#815000
b1 !
14
16
0-
1<
0:
0=
1C
0;
0A
1D
0(
0%
1,
1'
#820000
b0 !
04
06
1-
#825000
b1 !
14
16
0-
0>
0<
1?
1=
0C
0G
0I
0D
1(
1%
1"
0*
0'
1#
#830000
b0 !
04
06
1-
#835000
b1 !
14
16
0-
1@
1>
17
1A
1C
0E
1F
1G
0?
1J
0,
0(
0%
1&
0$
0"
1+
#840000
b0 !
04
06
1-
#845000
b1 !
14
16
0-
1B
0@
19
0F
07
0A
1E
1$
1,
0&
#850000
b0 !
04
06
1-
#855000
b1 !
14
16
0-
0B
1:
09
0C
1;
1A
1I
0J
1(
1%
0,
1*
0+
0#
#860000
b0 !
04
06
1-
#865000
b1 !
14
16
0-
1<
0:
0=
1C
0;
0A
1D
0(
0%
1,
1'
#870000
b0 !
04
06
1-
#875000
b1 !
14
16
0-
0>
0<
1?
1=
0C
0G
0I
0D
1(
1%
1"
0*
0'
1#
#880000
b0 !
04
06
1-
#885000
b1 !
14
16
0-
1@
1>
17
1A
1C
0E
1F
1G
0?
1J
0,
0(
0%
1&
0$
0"
1+
#890000
b0 !
04
06
1-
#895000
b1 !
14
16
0-
1B
0@
19
0F
07
0A
1E
1$
1,
0&
#900000
b0 !
04
06
1-
#905000
b1 !
14
16
0-
0B
1:
09
0C
1;
1A
1I
0J
1(
1%
0,
1*
0+
0#
#910000
b0 !
04
06
1-
#915000
b1 !
14
16
0-
1<
0:
0=
1C
0;
0A
1D
0(
0%
1,
1'
#920000
b0 !
04
06
1-
#925000
b1 !
14
16
0-
0>
0<
1?
1=
0C
0G
0I
0D
1(
1%
1"
0*
0'
1#
#930000
b0 !
04
06
1-
#935000
b1 !
14
16
0-
1@
1>
17
1A
1C
0E
1F
1G
0?
1J
0,
0(
0%
1&
0$
0"
1+
#940000
b0 !
04
06
1-
#945000
b1 !
14
16
0-
1B
0@
19
0F
07
0A
1E
1$
1,
0&
#950000
b0 !
04
06
1-
#955000
b1 !
14
16
0-
0B
1:
09
0C
1;
1A
1I
0J
1(
1%
0,
1*
0+
0#
#960000
b0 !
04
06
1-
#965000
b1 !
14
16
0-
1<
0:
0=
1C
0;
0A
1D
0(
0%
1,
1'
#970000
b0 !
04
06
1-
#975000
b1 !
14
16
0-
0>
0<
1?
1=
0C
0G
0I
0D
1(
1%
1"
0*
0'
1#
#980000
b0 !
04
06
1-
#985000
b1 !
14
16
0-
1@
1>
17
1A
1C
0E
1F
1G
0?
1J
0,
0(
0%
1&
0$
0"
1+
#990000
b0 !
04
06
1-
#995000
b1 !
14
16
0-
1B
0@
19
0F
07
0A
1E
1$
1,
0&
