Mini-Calculator/FSM_AULA7_Test/simulation/qsim/FSM.msim.vcd
$comment
	File created using the following command:
		vcd file FSM.msim.vcd -direction
$end
$date
	Thu Jul 12 10:15:31 2018
$end
$version
	ModelSim Version 10.1d
$end
$timescale
	1ps
$end
$scope module FSM_vlg_vec_tst $end
$var reg 1 ! clock $end
$var reg 1 " reset $end
$var wire 1 # counter [2] $end
$var wire 1 $ counter [1] $end
$var wire 1 % counter [0] $end
$var wire 1 & sampler $end
$scope module i1 $end
$var wire 1 ' gnd $end
$var wire 1 ( vcc $end
$var wire 1 ) unknown $end
$var tri1 1 * devclrn $end
$var tri1 1 + devpor $end
$var tri1 1 , devoe $end
$var wire 1 - clock~input_o $end
$var wire 1 . clock~inputclkctrl_outclk $end
$var wire 1 / counter[0]~output_o $end
$var wire 1 0 counter[1]~output_o $end
$var wire 1 1 counter[2]~output_o $end
$var wire 1 2 EA.E2~feeder_combout $end
$var wire 1 3 reset~input_o $end
$var wire 1 4 reset~inputclkctrl_outclk $end
$var wire 1 5 EA.E2~q $end
$var wire 1 6 EA.E3~feeder_combout $end
$var wire 1 7 EA.E3~q $end
$var wire 1 8 EA.E4~feeder_combout $end
$var wire 1 9 EA.E4~q $end
$var wire 1 : EA.E0~0_combout $end
$var wire 1 ; EA.E0~q $end
$var wire 1 < EA.E1~0_combout $end
$var wire 1 = EA.E1~q $end
$var wire 1 > counter~4_combout $end
$var wire 1 ? counter~5_combout $end
$var wire 1 @ counter~6_combout $end
$upscope $end
$upscope $end
$enddefinitions $end
#0
$dumpvars
0!
0"
1%
0$
0#
x&
0'
1(
x)
1*
1+
1,
0-
0.
1/
00
01
02
03
04
05
06
07
08
09
1:
0;
1<
0=
0>
0?
0@
$end
#5000
1!
1-
1.
0&
1=
1;
1>
12
0<
1?
0/
10
0%
1$
#10000
0!
0-
0.
1&
#15000
1!
1-
1.
0&
0=
15
0>
02
16
1/
1%
#20000
0!
0-
0.
1&
#25000
1!
1-
1.
0&
17
05
1>
18
06
1@
0?
0/
11
00
0%
1#
0$
#30000
1"
0!
13
0-
14
0.
1&
07
0;
0>
08
1<
0@
1/
01
1%
0#
#35000
1!
1-
1.
0&
#40000
0!
0-
0.
1&
#45000
1!
1-
1.
0&
#50000
0"
0!
03
0-
04
0.
1&
#55000
1!
1-
1.
0&
1=
1;
1>
12
0<
1?
0/
10
0%
1$
#60000
0!
0-
0.
1&
#65000
1!
1-
1.
0&
0=
15
0>
02
16
1/
1%
#70000
0!
0-
0.
1&
#75000
1!
1-
1.
0&
17
05
1>
18
06
1@
0?
0/
11
00
0%
1#
0$
#80000
1"
0!
13
0-
14
0.
1&
07
0;
0>
08
1<
0@
1/
01
1%
0#
#85000
1!
1-
1.
0&
#90000
0"
0!
03
0-
04
0.
1&
#95000
1!
1-
1.
0&
1=
1;
1>
12
0<
1?
0/
10
0%
1$
#100000
0!
0-
0.
1&
#105000
1!
1-
1.
0&
0=
15
0>
02
16
1/
1%
#110000
0!
0-
0.
1&
#115000
1!
1-
1.
0&
17
05
1>
18
06
1@
0?
0/
11
00
0%
1#
0$
#120000
0!
0-
0.
1&
#125000
1!
1-
1.
0&
19
07
0:
0>
08
1/
1%
#130000
0!
0-
0.
1&
#135000
1!
1-
1.
0&
0;
09
1<
1:
0@
01
0#
#140000
1"
0!
13
0-
14
0.
1&
#145000
1!
1-
1.
0&
#150000
0!
0-
0.
1&
#155000
1!
1-
1.
0&
#160000
0"
0!
03
0-
04
0.
1&
#165000
1!
1-
1.
0&
1=
1;
1>
12
0<
1?
0/
10
0%
1$
#170000
0!
0-
0.
1&
#175000
1!
1-
1.
0&
0=
15
0>
02
16
1/
1%
#180000
0!
0-
0.
1&
#185000
1!
1-
1.
0&
17
05
1>
18
06
1@
0?
0/
11
00
0%
1#
0$
#190000
0!
0-
0.
1&
#195000
1!
1-
1.
0&
19
07
0:
0>
08
1/
1%
#200000
0!
0-
0.
1&
#205000
1!
1-
1.
0&
0;
09
1<
1:
0@
01
0#
#210000
0!
0-
0.
1&
#215000
1!
1-
1.
0&
1=
1;
1>
12
0<
1?
0/
10
0%
1$
#220000
0!
0-
0.
1&
#225000
1!
1-
1.
0&
0=
15
0>
02
16
1/
1%
#230000
0!
0-
0.
1&
#235000
1!
1-
1.
0&
17
05
1>
18
06
1@
0?
0/
11
00
0%
1#
0$
#240000
0!
0-
0.
1&
#245000
1!
1-
1.
0&
19
07
0:
0>
08
1/
1%
#250000
0!
0-
0.
1&
#255000
1!
1-
1.
0&
0;
09
1<
1:
0@
01
0#
#260000
0!
0-
0.
1&
#265000
1!
1-
1.
0&
1=
1;
1>
12
0<
1?
0/
10
0%
1$
#270000
0!
0-
0.
1&
#275000
1!
1-
1.
0&
0=
15
0>
02
16
1/
1%
#280000
0!
0-
0.
1&
#285000
1!
1-
1.
0&
17
05
1>
18
06
1@
0?
0/
11
00
0%
1#
0$
#290000
0!
0-
0.
1&
#295000
1!
1-
1.
0&
19
07
0:
0>
08
1/
1%
#300000
0!
0-
0.
1&
#305000
1!
1-
1.
0&
0;
09
1<
1:
0@
01
0#
#310000
0!
0-
0.
1&
#315000
1!
1-
1.
0&
1=
1;
1>
12
0<
1?
0/
10
0%
1$
#320000
0!
0-
0.
1&
#325000
1!
1-
1.
0&
0=
15
0>
02
16
1/
1%
#330000
0!
0-
0.
1&
#335000
1!
1-
1.
0&
17
05
1>
18
06
1@
0?
0/
11
00
0%
1#
0$
#340000
0!
0-
0.
1&
#345000
1!
1-
1.
0&
19
07
0:
0>
08
1/
1%
#350000
0!
0-
0.
1&
#355000
1!
1-
1.
0&
0;
09
1<
1:
0@
01
0#
#360000
0!
0-
0.
1&
#365000
1!
1-
1.
0&
1=
1;
1>
12
0<
1?
0/
10
0%
1$
#370000
0!
0-
0.
1&
#375000
1!
1-
1.
0&
0=
15
0>
02
16
1/
1%
#380000
0!
0-
0.
1&
#385000
1!
1-
1.
0&
17
05
1>
18
06
1@
0?
0/
11
00
0%
1#
0$
#390000
0!
0-
0.
1&
#395000
1!
1-
1.
0&
19
07
0:
0>
08
1/
1%
#400000
0!
0-
0.
1&
#405000
1!
1-
1.
0&
0;
09
1<
1:
0@
01
0#
#410000
0!
0-
0.
1&
#415000
1!
1-
1.
0&
1=
1;
1>
12
0<
1?
0/
10
0%
1$
#420000
0!
0-
0.
1&
#425000
1!
1-
1.
0&
0=
15
0>
02
16
1/
1%
#430000
0!
0-
0.
1&
#435000
1!
1-
1.
0&
17
05
1>
18
06
1@
0?
0/
11
00
0%
1#
0$
#440000
0!
0-
0.
1&
#445000
1!
1-
1.
0&
19
07
0:
0>
08
1/
1%
#450000
0!
0-
0.
1&
#455000
1!
1-
1.
0&
0;
09
1<
1:
0@
01
0#
#460000
0!
0-
0.
1&
#465000
1!
1-
1.
0&
1=
1;
1>
12
0<
1?
0/
10
0%
1$
#470000
0!
0-
0.
1&
#475000
1!
1-
1.
0&
0=
15
0>
02
16
1/
1%
#480000
0!
0-
0.
1&
#485000
1!
1-
1.
0&
17
05
1>
18
06
1@
0?
0/
11
00
0%
1#
0$
#490000
0!
0-
0.
1&
#495000
1!
1-
1.
0&
19
07
0:
0>
08
1/
1%
#500000
0!
0-
0.
1&
#505000
1!
1-
1.
0&
0;
09
1<
1:
0@
01
0#
#510000
0!
0-
0.
1&
#515000
1!
1-
1.
0&
1=
1;
1>
12
0<
1?
0/
10
0%
1$
#520000
0!
0-
0.
1&
#525000
1!
1-
1.
0&
0=
15
0>
02
16
1/
1%
#530000
0!
0-
0.
1&
#535000
1!
1-
1.
0&
17
05
1>
18
06
1@
0?
0/
11
00
0%
1#
0$
#540000
0!
0-
0.
1&
#545000
1!
1-
1.
0&
19
07
0:
0>
08
1/
1%
#550000
0!
0-
0.
1&
#555000
1!
1-
1.
0&
0;
09
1<
1:
0@
01
0#
#560000
0!
0-
0.
1&
#565000
1!
1-
1.
0&
1=
1;
1>
12
0<
1?
0/
10
0%
1$
#570000
0!
0-
0.
1&
#575000
1!
1-
1.
0&
0=
15
0>
02
16
1/
1%
#580000
0!
0-
0.
1&
#585000
1!
1-
1.
0&
17
05
1>
18
06
1@
0?
0/
11
00
0%
1#
0$
#590000
0!
0-
0.
1&
#595000
1!
1-
1.
0&
19
07
0:
0>
08
1/
1%
#600000
0!
0-
0.
1&
#605000
1!
1-
1.
0&
0;
09
1<
1:
0@
01
0#
#610000
0!
0-
0.
1&
#615000
1!
1-
1.
0&
1=
1;
1>
12
0<
1?
0/
10
0%
1$
#620000
0!
0-
0.
1&
#625000
1!
1-
1.
0&
0=
15
0>
02
16
1/
1%
#630000
0!
0-
0.
1&
#635000
1!
1-
1.
0&
17
05
1>
18
06
1@
0?
0/
11
00
0%
1#
0$
#640000
0!
0-
0.
1&
#645000
1!
1-
1.
0&
19
07
0:
0>
08
1/
1%
#650000
0!
0-
0.
1&
#655000
1!
1-
1.
0&
0;
09
1<
1:
0@
01
0#
#660000
0!
0-
0.
1&
#665000
1!
1-
1.
0&
1=
1;
1>
12
0<
1?
0/
10
0%
1$
#670000
0!
0-
0.
1&
#675000
1!
1-
1.
0&
0=
15
0>
02
16
1/
1%
#680000
0!
0-
0.
1&
#685000
1!
1-
1.
0&
17
05
1>
18
06
1@
0?
0/
11
00
0%
1#
0$
#690000
0!
0-
0.
1&
#695000
1!
1-
1.
0&
19
07
0:
0>
08
1/
1%
#700000
0!
0-
0.
1&
#705000
1!
1-
1.
0&
0;
09
1<
1:
0@
01
0#
#710000
0!
0-
0.
1&
#715000
1!
1-
1.
0&
1=
1;
1>
12
0<
1?
0/
10
0%
1$
#720000
0!
0-
0.
1&
#725000
1!
1-
1.
0&
0=
15
0>
02
16
1/
1%
#730000
0!
0-
0.
1&
#735000
1!
1-
1.
0&
17
05
1>
18
06
1@
0?
0/
11
00
0%
1#
0$
#740000
0!
0-
0.
1&
#745000
1!
1-
1.
0&
19
07
0:
0>
08
1/
1%
#750000
0!
0-
0.
1&
#755000
1!
1-
1.
0&
0;
09
1<
1:
0@
01
0#
#760000
0!
0-
0.
1&
#765000
1!
1-
1.
0&
1=
1;
1>
12
0<
1?
0/
10
0%
1$
#770000
0!
0-
0.
1&
#775000
1!
1-
1.
0&
0=
15
0>
02
16
1/
1%
#780000
0!
0-
0.
1&
#785000
1!
1-
1.
0&
17
05
1>
18
06
1@
0?
0/
11
00
0%
1#
0$
#790000
0!
0-
0.
1&
#795000
1!
1-
1.
0&
19
07
0:
0>
08
1/
1%
#800000
0!
0-
0.
1&
#805000
1!
1-
1.
0&
0;
09
1<
1:
0@
01
0#
#810000
0!
0-
0.
1&
#815000
1!
1-
1.
0&
1=
1;
1>
12
0<
1?
0/
10
0%
1$
#820000
0!
0-
0.
1&
#825000
1!
1-
1.
0&
0=
15
0>
02
16
1/
1%
#830000
0!
0-
0.
1&
#835000
1!
1-
1.
0&
17
05
1>
18
06
1@
0?
0/
11
00
0%
1#
0$
#840000
0!
0-
0.
1&
#845000
1!
1-
1.
0&
19
07
0:
0>
08
1/
1%
#850000
0!
0-
0.
1&
#855000
1!
1-
1.
0&
0;
09
1<
1:
0@
01
0#
#860000
0!
0-
0.
1&
#865000
1!
1-
1.
0&
1=
1;
1>
12
0<
1?
0/
10
0%
1$
#870000
0!
0-
0.
1&
#875000
1!
1-
1.
0&
0=
15
0>
02
16
1/
1%
#880000
0!
0-
0.
1&
#885000
1!
1-
1.
0&
17
05
1>
18
06
1@
0?
0/
11
00
0%
1#
0$
#890000
0!
0-
0.
1&
#895000
1!
1-
1.
0&
19
07
0:
0>
08
1/
1%
#900000
0!
0-
0.
1&
#905000
1!
1-
1.
0&
0;
09
1<
1:
0@
01
0#
#910000
0!
0-
0.
1&
#915000
1!
1-
1.
0&
1=
1;
1>
12
0<
1?
0/
10
0%
1$
#920000
0!
0-
0.
1&
#925000
1!
1-
1.
0&
0=
15
0>
02
16
1/
1%
#930000
0!
0-
0.
1&
#935000
1!
1-
1.
0&
17
05
1>
18
06
1@
0?
0/
11
00
0%
1#
0$
#940000
0!
0-
0.
1&
#945000
1!
1-
1.
0&
19
07
0:
0>
08
1/
1%
#950000
0!
0-
0.
1&
#955000
1!
1-
1.
0&
0;
09
1<
1:
0@
01
0#
#960000
0!
0-
0.
1&
#965000
1!
1-
1.
0&
1=
1;
1>
12
0<
1?
0/
10
0%
1$
#970000
0!
0-
0.
1&
#975000
1!
1-
1.
0&
0=
15
0>
02
16
1/
1%
#980000
0!
0-
0.
1&
#985000
1!
1-
1.
0&
17
05
1>
18
06
1@
0?
0/
11
00
0%
1#
0$
#990000
0!
0-
0.
1&
#995000
1!
1-
1.
0&
19
07
0:
0>
08
1/
1%
