Mini-Calculator/Process_Test/simulation/qsim/Process_Test.msim.vcd
$comment
	File created using the following command:
		vcd file Process_Test.msim.vcd -direction
$end
$date
	Fri Jul 13 15:42:44 2018
$end
$version
	ModelSim Version 10.1d
$end
$timescale
	1ps
$end
$scope module Process_Test_vlg_vec_tst $end
$var reg 1 ! Clock $end
$var wire 1 " Result $end
$var wire 1 # sampler $end
$scope module i1 $end
$var wire 1 $ gnd $end
$var wire 1 % vcc $end
$var wire 1 & unknown $end
$var tri1 1 ' devclrn $end
$var tri1 1 ( devpor $end
$var tri1 1 ) devoe $end
$var wire 1 * Result~output_o $end
$var wire 1 + Clock~input_o $end
$upscope $end
$upscope $end
$enddefinitions $end
#0
$dumpvars
1!
1"
x#
0$
1%
x&
1'
1(
1)
1*
1+
$end
#5000
0!
0#
0+
0*
0"
#20000
1!
1#
1+
1*
1"
#30000
0!
0#
0+
0*
0"
#40000
1!
1#
1+
1*
1"
#60000
0!
0#
0+
0*
0"
#70000
1!
1#
1+
1*
1"
#75000
0!
0#
0+
0*
0"
#80000
1!
1#
1+
1*
1"
#90000
0!
0#
0+
0*
0"
#100000
1!
1#
1+
1*
1"
#105000
0!
0#
0+
0*
0"
#115000
1!
1#
1+
1*
1"
#120000
0!
0#
0+
0*
0"
#135000
1!
1#
1+
1*
1"
#145000
0!
0#
0+
0*
0"
#150000
1!
1#
1+
1*
1"
#155000
0!
0#
0+
0*
0"
#165000
1!
1#
1+
1*
1"
#175000
0!
0#
0+
0*
0"
#195000
1!
1#
1+
1*
1"
#200000
0!
0#
0+
0*
0"
#205000
1!
1#
1+
1*
1"
#210000
0!
0#
0+
0*
0"
#215000
1!
1#
1+
1*
1"
#220000
0!
0#
0+
0*
0"
#240000
1!
1#
1+
1*
1"
#245000
0!
0#
0+
0*
0"
#260000
1!
1#
1+
1*
1"
#265000
0!
0#
0+
0*
0"
#280000
1!
1#
1+
1*
1"
#290000
0!
0#
0+
0*
0"
#325000
1!
1#
1+
1*
1"
#330000
0!
0#
0+
0*
0"
#335000
1!
1#
1+
1*
1"
#350000
0!
0#
0+
0*
0"
#355000
1!
1#
1+
1*
1"
#360000
0!
0#
0+
0*
0"
#365000
1!
1#
1+
1*
1"
#375000
0!
0#
0+
0*
0"
#380000
1!
1#
1+
1*
1"
#400000
0!
0#
0+
0*
0"
#410000
1!
1#
1+
1*
1"
#415000
0!
0#
0+
0*
0"
#425000
1!
1#
1+
1*
1"
#430000
0!
0#
0+
0*
0"
#435000
1!
1#
1+
1*
1"
#460000
0!
0#
0+
0*
0"
#475000
1!
1#
1+
1*
1"
#490000
0!
0#
0+
0*
0"
#505000
1!
1#
1+
1*
1"
#510000
0!
0#
0+
0*
0"
#515000
1!
1#
1+
1*
1"
#520000
0!
0#
0+
0*
0"
#530000
1!
1#
1+
1*
1"
#535000
0!
0#
0+
0*
0"
#540000
1!
1#
1+
1*
1"
#545000
0!
0#
0+
0*
0"
#565000
1!
1#
1+
1*
1"
#570000
0!
0#
0+
0*
0"
#575000
1!
1#
1+
1*
1"
#585000
0!
0#
0+
0*
0"
#590000
1!
1#
1+
1*
1"
#595000
0!
0#
0+
0*
0"
#600000
1!
1#
1+
1*
1"
#605000
0!
0#
0+
0*
0"
#635000
1!
1#
1+
1*
1"
#640000
0!
0#
0+
0*
0"
#645000
1!
1#
1+
1*
1"
#650000
0!
0#
0+
0*
0"
#670000
1!
1#
1+
1*
1"
#675000
0!
0#
0+
0*
0"
#680000
1!
1#
1+
1*
1"
#685000
0!
0#
0+
0*
0"
#695000
1!
1#
1+
1*
1"
#700000
0!
0#
0+
0*
0"
#705000
1!
1#
1+
1*
1"
#715000
0!
0#
0+
0*
0"
#720000
1!
1#
1+
1*
1"
#725000
0!
0#
0+
0*
0"
#730000
1!
1#
1+
1*
1"
#740000
0!
0#
0+
0*
0"
#745000
1!
1#
1+
1*
1"
#750000
0!
0#
0+
0*
0"
#755000
1!
1#
1+
1*
1"
#760000
0!
0#
0+
0*
0"
#765000
1!
1#
1+
1*
1"
#775000
0!
0#
0+
0*
0"
#785000
1!
1#
1+
1*
1"
#790000
0!
0#
0+
0*
0"
#795000
1!
1#
1+
1*
1"
#800000
0!
0#
0+
0*
0"
#805000
1!
1#
1+
1*
1"
#815000
0!
0#
0+
0*
0"
#820000
1!
1#
1+
1*
1"
#825000
0!
0#
0+
0*
0"
#840000
1!
1#
1+
1*
1"
#855000
0!
0#
0+
0*
0"
#860000
1!
1#
1+
1*
1"
#865000
0!
0#
0+
0*
0"
#875000
1!
1#
1+
1*
1"
#900000
0!
0#
0+
0*
0"
#910000
1!
1#
1+
1*
1"
#915000
0!
0#
0+
0*
0"
#940000
1!
1#
1+
1*
1"
#955000
0!
0#
0+
0*
0"
#965000
1!
1#
1+
1*
1"
#975000
0!
0#
0+
0*
0"
#980000
1!
1#
1+
1*
1"
#990000
0!
0#
0+
0*
0"
#995000
1!
1#
1+
1*
1"
